id_str,created,text,user_location,user_created
1113065714439483392,"2019-04-02 13:08:40.000000","@GrabID min mau lapor tadi saya beli grabfood apply pake pembayaran Ovo kok malah diubah driver jadi bayar cash , m… https://t.co/SRf1bmf8CZ","Brebes - Surabaya","2012-07-12 07:14:59.000000"
1113065796396212226,"2019-04-02 13:09:00.000000","Mau Jalan-jalan Bareng MTMA? Nih ada kesempatan ngetrip bareng Luna Maya dan Daniel Mananta ke Bali dengan gunakan… https://t.co/hP7KWjoka5",,"2010-03-22 03:47:30.000000"
1113065814003859459,"2019-04-02 13:09:04.000000","@lenongHAH @gojekindonesia LGSG AKU BUKA LOH SKRG! ngaruh gak",,"2011-11-12 13:38:21.000000"
1113065824040808452,"2019-04-02 13:09:06.000000","kurang setia apa coba? :') @GrabID https://t.co/NL9yksysrx","Semarang, Jawa Tengah","2012-05-11 07:06:34.000000"
1113066533121478657,"2019-04-02 13:11:55.000000","Udah ditelp kasih petunjuk keberadaan eh drivernya nggak paham, ujung2nya dibatalin. Makin parah nih pelayanan @gojekindonesia. Mengecewakan","Jakarta Capital Region","2009-11-12 09:10:22.000000"
1113066616521031681,"2019-04-02 13:12:15.000000","@gojekindonesia setahun lebih memakai jasa gojek,baru kali ini saya yg customer diprotes oleh mitra driver karena k… https://t.co/tDgE9cXL1a",,"2009-11-04 06:59:02.000000"
1113066709781405698,"2019-04-02 13:12:38.000000","@GrabID mhn bantuan saya 2x byr jasa Grab lewat OVO &amp; waktu sy tanya driver bilang blm dbyr OVO.Kembalikan saldo OV… https://t.co/YUk6Z24Gjl","Germany, Gißen","2010-08-29 12:32:04.000000"
1113066739040804864,"2019-04-02 13:12:45.000000",Nice,"Kota Bandung, Jawa Barat","2012-09-15 15:06:44.000000"
1113066891969388545,"2019-04-02 13:13:21.000000","Gue gak setuju @gojekindonesia dibilang belum menyediakan segala kebutuhan di jam sibuk. Padahal kan udah jelas, ka… https://t.co/ev25p8pocx",,"2009-07-19 06:10:11.000000"
1113066982708895744,"2019-04-02 13:13:43.000000",@GrabID,+62,"2013-12-31 01:37:56.000000"
1113067037280985090,"2019-04-02 13:13:56.000000","@GrabID Cek dm","At Heart","2009-11-11 11:09:51.000000"
1113067563154530304,"2019-04-02 13:16:01.000000","Kalo pesan grabfood, tetap gak ada opsi utk kasih uang tip ke driver ya?
@GrabID","in pocket of a ripped jeans","2009-10-03 18:59:15.000000"
1113067667231891456,"2019-04-02 13:16:26.000000","@hannasaraha @gojekindonesia Ya coba tlg ya @gojekindonesia ini ada cust ingin minta video klarifikasi",,"2009-08-17 04:12:46.000000"
1113067872253693954,"2019-04-02 13:17:15.000000","@GrabID nanti kl BTS konser disini gini juga ga min?",Indonesia,"2012-02-09 02:08:48.000000"
1113068070224879622,"2019-04-02 13:18:02.000000","@gojekindonesia go food untuk map nya ga pake direction kaya go shop ya? Ksian suka muter2 di keruwetannya jalan ke… https://t.co/VB1l3Zcs3n","ÜT: -6.947503,107.664247","2010-01-26 18:09:28.000000"
1113068077787185157,"2019-04-02 13:18:04.000000","@GrabID meneng luar biasa cukup 18k wkwkw https://t.co/9lXu42GrPu",,"2018-06-28 13:55:53.000000"
1113068090248462336,"2019-04-02 13:18:07.000000","@gojekindonesia TOP UP gopay saya sebesar 1jt belum terisi di gopay. Sudah saya email ke cs@go-pay.co.id namun blm ada respon",,"2010-03-03 04:03:29.000000"
1113068643934363648,"2019-04-02 13:20:19.000000","@GrabID Dear Grab Team, mohon supportnya terkait dengan account grab saya yang tidak bisa melakukan pembayaran meng… https://t.co/hySS8klGd7","ÜT: -6.5270146,107.4459581","2009-09-27 10:10:33.000000"
1113068793964752896,"2019-04-02 13:20:54.000000","@GrabID Posted... 
https://t.co/RpbENjzeac",,"2016-09-15 09:17:43.000000"
1113068966975430656,"2019-04-02 13:21:36.000000","Mohon bantuannya @GrabID , saya ga bisa log in aplikasi grab setelah diuninstall beberapa waktu lalu. Udah nanya ke… https://t.co/QpWJqd5VnQ",,"2010-08-16 11:26:00.000000"
1113069002023067648,"2019-04-02 13:21:44.000000","@gojekindonesia cek dm ya. Mksh",Singapore,"2011-10-01 14:28:49.000000"
1113069330550251521,"2019-04-02 13:23:02.000000","Hi @GrabID , kl @BTS_twt konser di Jakarta, adain grab promo code kaya di Thailand juga doong 💜",Indonesia,"2018-01-31 06:17:02.000000"
1113069823272005632,"2019-04-02 13:25:00.000000","salah saya apa @GrabID ?
saya cuma ganti nomor hape kok malah suspended:( https://t.co/OZCnOPijVg",,"2013-12-26 10:36:14.000000"
1113069876145319936,"2019-04-02 13:25:12.000000","@gojekindonesia Baik admin, saya akan tunggu, tapi biasanya berapa lama ya?",,"2019-03-27 21:03:58.000000"
1113069984161292288,"2019-04-02 13:25:38.000000","@rahmi_muhammad @GrabID Bahkan grab juga salah lo mi, menganggap kau laki2 hahahah",,"2014-02-06 12:53:34.000000"
1113070020056084480,"2019-04-02 13:25:47.000000","@gojekindonesia min, top up gopay via m banking mandiri udah sekitar sejam belum masuk nihh..",Indonesia,"2011-04-23 09:25:50.000000"
1113070164398899200,"2019-04-02 13:26:21.000000","@GrabID Wah awalnya sy lgsng pesan pdhl.titik saya gak update. Jadi jauh drivernya akhirnya nunggu 1jam. Terpaksa 🙄",Indonesia,"2009-12-07 14:08:55.000000"
1113070350978363392,"2019-04-02 13:27:06.000000","Hari ini gofood @gojekindonesia 2 kali, dua2nya mengantarkan makanan tdk sesuai dgn pesanan sehingga driver harus k… https://t.co/iqSgSNkQre","DKI Jakarta","2009-12-12 04:41:08.000000"
1113070495811829760,"2019-04-02 13:27:40.000000","@gojekindonesia min saya ini td order udh smpe tmpt tp orderan saya buktinya kok hilang, trs malah gojek saya nyant… https://t.co/8SoPAaKqzA","Mojokerto, Jawa Timur, IND","2010-12-03 06:14:43.000000"
1113070616138006528,"2019-04-02 13:28:09.000000","@sonylaksana39 @gojekindonesia @YLKI_ID Coba kita tunggu balesannya aja dulu, bro
Mudah2an bisa segera",,"2010-06-03 12:24:56.000000"
1113070764373098496,"2019-04-02 13:28:44.000000","halo gojek ni uda topup gopay, di receipt mbanking saya berhasil kok gamasuk diakun saya siii @gojekindonesia",,"2010-04-18 10:04:11.000000"
1113071343279386625,"2019-04-02 13:31:02.000000","@gojekindonesia Terima kasih , gopay saya sdh kembali👍🏻",,"2013-02-11 11:55:45.000000"
1113071676806225921,"2019-04-02 13:32:22.000000","Dengan @gojekindonesia Anda bisa #UninstallKhawatir, karena ribuan driver Gojek sudah dilatih untuk berkendara deng… https://t.co/qcvZI90N2L",Semarang,"2010-04-09 12:27:07.000000"
1113071680782458880,"2019-04-02 13:32:23.000000","@GrabID itu emang notif transaksi kepotong 2x gitu? https://t.co/iaj1SPLnmF","Tanggulangin, Indonesia","2013-06-18 09:28:45.000000"
1113071767826837504,"2019-04-02 13:32:43.000000","Dengan @gojekindonesia Anda bisa #UninstallKhawatir, karena ribuan driver Gojek sudah dilatih untuk berkendara deng… https://t.co/88tHSctpvz",Semarang,"2010-04-09 12:27:07.000000"
1113072134937444362,"2019-04-02 13:34:11.000000","@kurangbersyukur @GrabID Hahahahahaha jeli kali kauuuu. Udah capek saya dikira lakik karena namanya pake muhammad :')",,"2010-08-16 11:26:00.000000"
1113072221470187521,"2019-04-02 13:34:32.000000","hi @gojekindonesia , aku mau ganti nomer hp di akunku soalnya nomer lamaku keblokir, ternyata ada yg pake nomer hp… https://t.co/8AFzj6jVvY","Kediri, Jawa Timur","2009-11-17 05:57:23.000000"
1113072234791235584,"2019-04-02 13:34:35.000000","@gojekindonesia oy maling gopay. Balikin saldo gopay gw.",Singapore,"2011-10-01 14:28:49.000000"
1113072323555254272,"2019-04-02 13:34:56.000000","@rahmi_muhammad @GrabID Ahaha bapak loh dipanggil",,"2014-02-06 12:53:34.000000"
1113072468875390976,"2019-04-02 13:35:31.000000","@GrabID kenapa sy tidak bisa memilih metode pembayaran ya? https://t.co/PPHvbVIWM2",Purwokerto,"2013-05-03 17:11:22.000000"
1113072521157328901,"2019-04-02 13:35:43.000000","@kurangbersyukur @GrabID Masih mending kalian ya. Panggil aku ""bang""",,"2010-08-16 11:26:00.000000"
1113072871381721089,"2019-04-02 13:37:07.000000","@GrabID Gajadi bg maap","Depok, Jawa Barat","2012-09-09 13:09:21.000000"
1113072894643331072,"2019-04-02 13:37:12.000000","@rahmi_muhammad @GrabID Ahahaha 😅😂",,"2014-02-06 12:53:34.000000"
1113073583452938241,"2019-04-02 13:39:56.000000","Thanks! @GrabID https://t.co/2wlNMC9MPp",Indonesia,"2009-12-20 09:54:38.000000"
1113073645436395520,"2019-04-02 13:40:11.000000","@LambeTurah_LaF @maklambenyinyir @makLambeTurah @LAMBEQUUU @gojekindonesia @GrabID",Indonesia,"2010-06-06 06:38:18.000000"
1113073723232456704,"2019-04-02 13:40:30.000000","Layanan transportasi @gojekindonesia dan @grabid sangat membantu, cepat, akurat, mudah dan murah #darikitauntukkita… https://t.co/PdosAEPH0p","Medan,Indonesia","2013-11-19 01:25:31.000000"
1113073749442453504,"2019-04-02 13:40:36.000000","@GrabID dear grab, mohon edukasi driver agar tdk cari yg searah jalan pulang, hilang jika dichat, tdk mau antar jauh :)","Jakarta, Indonesia","2009-09-30 07:46:51.000000"
1113073771403833350,"2019-04-02 13:40:41.000000","@GrabID Mantulll...nunu",Indonesia,"2018-07-02 10:16:27.000000"
1113074482636177408,"2019-04-02 13:43:31.000000","@GrabID min, grab ride itu sama aja grab bike?","💍","2019-01-11 23:26:57.000000"
1113074569806397441,"2019-04-02 13:43:52.000000","@anggunsept12 @GrabID hayolohhh @GrabID @GrabID @GrabID",,"2014-01-17 06:08:44.000000"
1113074804783865856,"2019-04-02 13:44:48.000000",@gojekindonesia,,"2016-01-22 06:48:15.000000"
1113074893766066178,"2019-04-02 13:45:09.000000","@GrabID NTR BEGINI JG YAAAAAA HEHEHEHEHEHHEEHEEHEE BORAHAE💜💜💜💜💜💜💜💜","BANGTANLAND✨ ","2010-02-22 07:11:56.000000"
1113075220678467584,"2019-04-02 13:46:27.000000","@gojekindonesia mengapa saya di suspen/pm tanpa peringatan padahal saya driver baru belum  bulan , dan saya tidak d… https://t.co/jnCmuwGJzA",,"2016-01-22 06:48:15.000000"
1113075360130723843,"2019-04-02 13:47:00.000000","@Bluebirdgroup NM309 problems with easy ride again @Bluebirdgroup and again I told him to call dispatch and he has… https://t.co/kYdsQYNQgk",,"2009-08-31 23:25:14.000000"
1113075570663809026,"2019-04-02 13:47:50.000000","Driver @GrabID di Palembang yg kayaknya parno ditodong oleh penumpang... Lobang teralisnya kegedean bu, bisa muat b… https://t.co/n2gtffpL4s",,"2017-05-11 11:46:03.000000"
1113075725744037888,"2019-04-02 13:48:27.000000","@gojekindonesia tolong driver gocar ajarin untuk cek GPS dulu ya sebelum jalan. Persetan feeling mereka atau apapun… https://t.co/TjEZIAEprZ","in 500 meters, turn straight","2009-08-26 14:57:19.000000"
1113075910477897730,"2019-04-02 13:49:11.000000","Default pick up point saya (rumah) beberapa minggu ini bergeser ke sebuah kafe tak jauh dari rumah. Saya coba kompl… https://t.co/N4L02qMeoN",Jakarta,"2009-06-10 08:09:30.000000"
1113076473491943425,"2019-04-02 13:51:25.000000","Dengerin #OBOSS #OBROLANBARENGBOSS bersama @GrabID // Amanda Mitsuri dari Massicot // besok jam 8 pagi https://t.co/xeSAB4wSqu","Supratman No.01 Bandung","2009-10-16 10:23:26.000000"
1113076607428620288,"2019-04-02 13:51:57.000000","@GrabID Hoax...","Medan Tempur","2016-03-28 10:00:01.000000"
1113076984546910210,"2019-04-02 13:53:27.000000","@ardiandio @podcastretropus @gojekindonesia silahkan ditindak.","BANGSAT KAU","2011-07-04 12:49:39.000000"
1113077028771684352,"2019-04-02 13:53:38.000000","Ketika @CommuterLine hanya bisa  sampai cakung, order @gojekindonesia tak kunjung dapet akhirnya saya memutuskan un… https://t.co/Lu8ENBuF7n",Jakarta,"2011-07-19 12:41:51.000000"
1113077125878181888,"2019-04-02 13:54:01.000000","@gojekindonesia hallooooo admin yg budimannn. Tolong direspon yaa dm sy. Mkshhhhh",Singapore,"2011-10-01 14:28:49.000000"
1113077378383663105,"2019-04-02 13:55:01.000000","Untuk pertama kalinya sejak pake @gojekindonesia saya kasih bintang 1 buat driver. Tripnya udh jalan tapi dia ga ge… https://t.co/jhmOjFXR0e","Ujungberung, Bandung","2009-07-20 10:58:43.000000"
1113077435132633088,"2019-04-02 13:55:15.000000","@Bluebirdgroup @gojekindonesia @GrabID I am going around and around with the driver with the meter on just for him… https://t.co/7XodPHqyLt",,"2009-08-31 23:25:14.000000"
1113077534701236225,"2019-04-02 13:55:38.000000","@GrabID Ini tuh temen aku satu smk, satu angkatan. Duhh khusnul bangga deh aku",,"2019-03-20 15:30:43.000000"
1113077612660715524,"2019-04-02 13:55:57.000000","kapok bgt @GrabID drivernya mau nya ke tempat gelap, sepi, trs lanjut modus deh hhhhhh","DKI Jakarta, Indonesia","2018-05-10 08:12:21.000000"
1113077824720519168,"2019-04-02 13:56:48.000000","@GrabID malem,  saya ada kendala untuk upload foto kuitansi untuk komplain terhadap pemesanan grabfood . kenapa set… https://t.co/U1JrqIwtYE",Indonesia,"2011-01-12 22:08:51.000000"
1113077880475406338,"2019-04-02 13:57:01.000000","Sedang aku nitip salam ajah","Tanah baya Randd pml jateng ","2019-02-05 15:08:42.000000"
1113077979737862144,"2019-04-02 13:57:25.000000","ASDFGHJKLLALAL 
I hope when indonesia tour datr come out @GrabID will do something like this too","in my own world","2017-01-29 14:14:02.000000"
1113078017125801984,"2019-04-02 13:57:33.000000","When u r starving to death but ur @GrabID driver is keep busy https://t.co/KoQF2azUhB",,"2010-04-03 02:33:02.000000"
1113078054702604289,"2019-04-02 13:57:42.000000","@resysilviana2 @GrabID kamu ada yg luka?","Kota Kediri, Indonesia","2018-07-31 05:46:15.000000"
1113078290917421056,"2019-04-02 13:58:39.000000","Mimin2 lg pada ngapain deh,  pada diem2 aja gaada yang respon email, tlpn, mention. Dah 2 hari ni. Katanya max 1x24… https://t.co/5wfaDvRu3I",,"2012-03-29 15:57:34.000000"
1113078304578297861,"2019-04-02 13:58:42.000000","min @gojekindonesia ini saya udah isi ulang paket data @triindonesia dan saldo gopay saya udah kepotong tapi knp ma… https://t.co/fmyoOxTZy2","Kota Surabaya, Jawa Timur","2010-12-20 06:25:40.000000"
1113078351223128064,"2019-04-02 13:58:53.000000","@resysilviana2 @GrabID Ih ngeri ah","Inti bumi","2013-03-07 08:34:15.000000"
1113078370961514496,"2019-04-02 13:58:58.000000","@gojekindonesia tolong yaa di cek dm. Mksh",Singapore,"2011-10-01 14:28:49.000000"
1113078470844669958,"2019-04-02 13:59:22.000000","Mimin2 lg pada ngapain deh,  pada diem2 aja gaada yang respon email, tlpn, mention. Dah 2 hari ni. Katanya max 1x24… https://t.co/eNaATazfNg",,"2012-03-29 15:57:34.000000"
1113078532794544128,"2019-04-02 13:59:36.000000","@GrabID Siap kak obby, terima kasih banyak atas supportnya..","ÜT: -6.5270146,107.4459581","2009-09-27 10:10:33.000000"
1113078588192903170,"2019-04-02 13:59:50.000000","@ugihebat @CurhatKRL @CommuterLine @gojekindonesia Lanjutkan",,"2016-01-17 11:20:26.000000"
1113078624515588099,"2019-04-02 13:59:58.000000","@milenmeliana @GrabID Semoga buruan dapet wkw","127.0.0.1 : 1080","2010-05-04 18:14:38.000000"
1113078867801956353,"2019-04-02 14:00:56.000000","@Bluebirdgroup @gojekindonesia @GrabID Driver trying to call dispatch and no one is picking up the phone. What a co… https://t.co/JnZ2N5nzh1",,"2009-08-31 23:25:14.000000"
1113079032436805632,"2019-04-02 14:01:35.000000","@GrabID halo admin. Hari ini restauran saya terdaftar grabfood. Namun menu yg tertera sangat tidak sesuai dengan ap… https://t.co/AksxneAbCc",,"2011-02-04 04:59:04.000000"
1113079160333692929,"2019-04-02 14:02:06.000000",@GrabID,"korea tenggara","2018-06-04 22:25:00.000000"
1113079183758909446,"2019-04-02 14:02:12.000000","@gojekindonesia hallo, ini td saya kan jaik gojek, dan udah sampe, tp kok tiba' nggak ada butki order nya di hp say… https://t.co/toIJBmCmBK","Mojokerto, Jawa Timur, IND","2010-12-03 06:14:43.000000"
1113079360146178049,"2019-04-02 14:02:54.000000","Romantis(rokok makan gratis)","Tanah baya Randd pml jateng ","2019-02-05 15:08:42.000000"
1113079375702810624,"2019-04-02 14:02:57.000000","@GrabID Min Grab/OVO ga bisa dipakai bayar/token listrik???",,"2018-11-03 10:53:23.000000"
1113079412780523520,"2019-04-02 14:03:06.000000","Iyaa gue maapin bang 🙏

Cc : @GrabID https://t.co/AWvEYhELh8","Shin Sekai","2013-06-08 02:32:48.000000"
1113079512181354496,"2019-04-02 14:03:30.000000","@nineteesm @GrabID alhamdulillah masi dikasi selamat kok😭","DKI Jakarta, Indonesia","2018-05-10 08:12:21.000000"
1113079582310064128,"2019-04-02 14:03:47.000000","@ichaishayu @GrabID Akhirnua ya","Yogyakarta, Indonesia","2011-02-19 04:39:17.000000"
1113079602451111937,"2019-04-02 14:03:51.000000","@rxaxnxi @GrabID hrs hati-hati ya kamu!😭","DKI Jakarta, Indonesia","2018-05-10 08:12:21.000000"
1113079684168708097,"2019-04-02 14:04:11.000000","@gojekindonesia min saya withdraw saldo gopay, ko blm masuk ya? Tp status nya sudah selesai..",,"2013-04-15 04:08:48.000000"
1113079745292394496,"2019-04-02 14:04:25.000000","@ugihebat @CurhatKRL @CommuterLine @gojekindonesia Semangatt mas...
Saya masih berjuang ini baru dpt krl setelah 1 jam nunggu di juanda..😂😂",,"2018-12-14 05:45:09.000000"
1113080066882203649,"2019-04-02 14:05:42.000000","@resysilviana2 @GrabID Iyaa, jarang sih pake ojol sih, takut soalnya😂","Inti bumi","2013-03-07 08:34:15.000000"
1113080072297013251,"2019-04-02 14:05:43.000000","@BitaKhanza @CurhatKRL @CommuterLine @gojekindonesia Gak usah ditungguin mba, mending ke halte transjakarta SEKARANG😂",Jakarta,"2011-07-19 12:41:51.000000"
1113080253256065026,"2019-04-02 14:06:27.000000","@resysilviana2 @GrabID itu gmn ceritanyaa... sendirian???","Kota Kediri, Indonesia","2018-07-31 05:46:15.000000"
1113080281286627333,"2019-04-02 14:06:33.000000","Nunggu @BTS_twt konser dong..😌 Grab Indonesia kapan nih ? @GrabID",,"2019-01-21 04:18:36.000000"
1113080311859089409,"2019-04-02 14:06:41.000000","@GrabID Posted... 
https://t.co/lBeePkbNlV",,"2017-10-18 12:56:52.000000"
1113080401084346368,"2019-04-02 14:07:02.000000","Disuruh ngadu langsung ke Help Centre tapi ketemunya gini gimana yaaa 😅 @GrabID https://t.co/e7M71mMv73",Jakarta,"2009-06-10 08:09:30.000000"
1113080461247430656,"2019-04-02 14:07:16.000000","@GrabID @vtwx bales dm min",,"2015-03-11 10:03:38.000000"
1113080633209679873,"2019-04-02 14:07:57.000000","@resysilviana2 @GrabID diapain?","Pasar Rebo, Indonesia","2014-10-28 00:41:56.000000"
1113080857143566336,"2019-04-02 14:08:51.000000","@ugihebat @CurhatKRL @CommuterLine @gojekindonesia Macett sma aja .. udah naik krl ini baru mau gondangdia..",,"2018-12-14 05:45:09.000000"
1113080892124065793,"2019-04-02 14:08:59.000000","Langsung email ke customerservice@gojek.com aja dol untuk komplen. Serius, lgs di respon. Aku udah berkali-kali mal… https://t.co/OStLrXaqB4","Republic Indonesia","2009-07-15 02:36:06.000000"
1113080976165335040,"2019-04-02 14:09:19.000000","@GrabID hai grab, barusan saya menukar poin grab dengan diskon 10.000, akan tetapi diskon 10.000 belum masuk ke aku… https://t.co/GvkZ7u9Bn7","Rolled In Blanket","2010-05-14 08:52:14.000000"
1113081003877097472,"2019-04-02 14:09:26.000000","@mayorahariski @GrabID Alhamdulillah cinta",Indonesia,"2009-12-20 09:54:38.000000"
1113081365761687552,"2019-04-02 14:10:52.000000","@GrabID 
Sedi akutu bacanya nder.
https://t.co/sWKEuq08Ut","Semarang, Indonesia ","2015-07-15 21:52:45.000000"
1113081378537500677,"2019-04-02 14:10:55.000000","@CommuterLine Saya dapat informasi, di stasiun Cakung tidak ada driver @gojekindonesia dan @GrabID yang mau ambil o… https://t.co/eAORgfxPsf",Indonesia,"2009-11-07 18:07:01.000000"
1113081643420409856,"2019-04-02 14:11:58.000000","@gojekindonesia sudah komplain via apps, by phone, email, masalah gopay saya yg tidak dikembalikan karena driver “t… https://t.co/ccnbpR39bV","Jakarta Capital Region, Indonesia","2013-09-02 17:43:21.000000"
1113081733736366081,"2019-04-02 14:12:20.000000","@gojekindonesia apakah akun yang sudah saya dm idnya sudah hangus?","Mojokerto, Jawa Timur","2017-11-20 16:59:50.000000"
1113081934379331586,"2019-04-02 14:13:07.000000","@GrabID kok saya topup via internet banking, blm masuk2 ya udh ada 2 jam padahal..dari jam 7 sore tdi",Jakarta,"2019-02-27 00:15:21.000000"
1113082059491164160,"2019-04-02 14:13:37.000000","@Bluebirdgroup @gojekindonesia @GrabID And since you haven't called him, we are going to the closest taxi pool to r… https://t.co/6MhD7sLGj5",,"2009-08-31 23:25:14.000000"
1113082327310131205,"2019-04-02 14:14:41.000000","@_cintyaputri @GrabID Bukan ga di jwb bu tapi emang ga bunyi,  beberapa kali kejadian di saya pas udah bawa penumpa… https://t.co/6HAp8T2R7C",,"2019-03-28 05:39:45.000000"
1113082764734038016,"2019-04-02 14:16:25.000000","@hannasaraha @gojekindonesia Tolong donk @gojekindonesia ini temen saya kebuang waktunya 5 menit cuma buat hal sia… https://t.co/AYbGmuY7XY",,"2009-05-14 04:55:13.000000"
1113082986973425664,"2019-04-02 14:17:18.000000","@gojekindonesia Dear admin tadi pagi pukul 06:21 saya top up saldo go pay. Transaksi sudah terdebet, tapi saldo bel… https://t.co/x6fvc61U6T",,"2010-05-25 08:28:16.000000"
1113083013410152448,"2019-04-02 14:17:25.000000","Kami disarankan pake Moda transportasi lain bila terburu2??? G Salah Bos? @CommuterLine @gojekindonesia @YLKI_ID… https://t.co/hTBd4tqavQ","ÜT: -6.25062,107.03229","2010-08-31 09:19:32.000000"
1113083122160025601,"2019-04-02 14:17:51.000000","@GrabID Saya rider grab,  ga pernah lancar kalo tlp via aplikasi,  kenapa ya,  di customer katanya ga di jwb padahal tidak ada tlp masuk.",,"2019-03-28 05:39:45.000000"
1113083152602300417,"2019-04-02 14:17:58.000000","@GrabID Dan apakah bisa digunakan berkali-kali? Thanks.","Rolled In Blanket","2010-05-14 08:52:14.000000"
1113083271628255233,"2019-04-02 14:18:26.000000","@atikarkn @GrabID udah, UNBK dulu sanah",,"2013-12-26 10:36:14.000000"
1113083339139768320,"2019-04-02 14:18:42.000000","@GrabID udah, cek aja hehe","jyp tercinta","2019-02-07 12:39:01.000000"
1113084110673633280,"2019-04-02 14:21:46.000000","@arief_brilian @CommuterLine @gojekindonesia @YLKI_ID Ya memang gitu kak karena kan lagi ada gangguan jadi KCI tida… https://t.co/BN2XzKDG5b","Sepanjang rel kereta api","2014-01-11 05:57:32.000000"
1113084152474087424,"2019-04-02 14:21:56.000000","@GrabID kayanya appsnya kenapa2 deh, soalnya tiap aplikasi ketutup ga sengaja, kt ga bs liat lg pesanan yg lg dilak… https://t.co/CZswR4ojnd","bogor, jakarta","2009-10-05 04:29:13.000000"
1113084172338253824,"2019-04-02 14:22:01.000000","@estradyol @GrabID Keren yaa, namanya udah mewakili permintaan maaf sama customernya","Shin Sekai","2013-06-08 02:32:48.000000"
1113084175093882880,"2019-04-02 14:22:02.000000","@GrabID Cek dm","At Heart","2009-11-11 11:09:51.000000"
1113084476358184960,"2019-04-02 14:23:13.000000","@GrabID, mhn bantuannya....","Magetan, Indonesia","2016-01-13 04:35:53.000000"
1113084486839787520,"2019-04-02 14:23:16.000000","@GrabID min nih driver g bs dihubungi, chat g dbales tp kok malah dy yg cancel ya","West Jakarta, DKI Jakarta","2015-10-17 13:38:16.000000"
1113084613705043969,"2019-04-02 14:23:46.000000","@Bluebirdgroup @gojekindonesia @GrabID Finally @Bluebirdgroup called the driver NM309 after we are on the way to th… https://t.co/LcHqChW9VF",,"2009-08-31 23:25:14.000000"
1113084795750244352,"2019-04-02 14:24:30.000000","@GrabID Boleh bales dm nya?
Terima kasih",,"2010-02-17 06:57:27.000000"
1113085434962206720,"2019-04-02 14:27:02.000000","Sebelum nonton Shazam! udah dapet spoilernya dari iklan XXI yang disponsori oleh @tokopedia @traveloka dan @gojekindonesia","Jakarta, Indonesia","2009-09-03 11:49:25.000000"
1113085449835175936,"2019-04-02 14:27:06.000000","@GrabID Utk apa ya? Saya cuma pengen tau knp drivernya sibuk terus kalo malam antara jam 19-22",,"2010-04-03 02:33:02.000000"
1113085706295947264,"2019-04-02 14:28:07.000000","@GrabID @TrieNita Di bantu Thur.","Indonesia, Pontianak - Jakarta","2010-07-27 12:41:13.000000"
1113085974525800449,"2019-04-02 14:29:11.000000","Another @gojekindonesia marathon to reach #decacorn. 
Today's order : 5k + 39k!  🎉
#cintailahprodukprodukindonesia","Yogyakarta, Indonesia","2012-10-01 09:06:18.000000"
1113086143984164865,"2019-04-02 14:29:51.000000","@GrabID yang menyebabkan saya akhir2 ini malas naik grabbike ya ini. Di bid, tapi suruh cancel. Disuruh dia yg canc… https://t.co/15scILR3Cu","Bandung - Jakarta","2009-09-02 00:57:03.000000"
1113086269544751104,"2019-04-02 14:30:21.000000","@GrabID min tolong cek DM dan segera follow up ya",Hogsmeade,"2010-09-02 22:35:13.000000"
1113086344316649474,"2019-04-02 14:30:39.000000","@gojekindonesia Saya top-up juga belum bertambah juga saldonya min","►MUSICWORLD♣","2011-07-14 14:00:31.000000"
1113086454547140611,"2019-04-02 14:31:05.000000","Kalo jam kerja, paling eneg sama @GrabID Drivernya minta cancel mulu! Tiap lapor ke helpcenter ga ditanggepin. Ngaco grab lama2!!!!!",World,"2010-11-03 14:54:33.000000"
1113086466295382016,"2019-04-02 14:31:08.000000","@gojekindonesia Saya top-up juga belum bertambah saldonya min","►MUSICWORLD♣","2011-07-14 14:00:31.000000"
1113086495361884161,"2019-04-02 14:31:15.000000","@gojekindonesia helllo gojek pls respond my dm n mail.... saldo gopay saya gak masuk2 dari pagi",,"2009-05-11 03:53:39.000000"
1113086530749263873,"2019-04-02 14:31:23.000000","@GrabID min minta tolong driver seperti ini diberikan teguran, di chat ga respon,di telfon gadiangkat, karena drpad… https://t.co/zdqaOIG0nU",,"2016-03-31 03:26:41.000000"
1113086581051580417,"2019-04-02 14:31:35.000000","@anggunsept12 @GrabID go lebih baik memang wkwkwkwk","Manchester,UK","2009-10-18 08:48:26.000000"
1113086630997450753,"2019-04-02 14:31:47.000000","Min @GrabID aku belum sempet naik grab ini dari cakung, karna tadi koneksi di cakung jelek parah. Tapi kenapa ovo s… https://t.co/NqEvAzvlKg","Cikarang, Indonesia","2011-01-27 06:31:55.000000"
1113086699368673280,"2019-04-02 14:32:03.000000","@GrabID Tiap pulang kerja gini aja terus, isi ovo ga ada guna sama grab.",World,"2010-11-03 14:54:33.000000"
1113086990650470400,"2019-04-02 14:33:13.000000","sudah berkali kali mau melakukan pemesanan grab food kenapa selalu kaya gini ya? @GrabID padahal banyak driver nong… https://t.co/Xsn8EDgQKz",,"2013-10-30 10:57:44.000000"
1113087165460754432,"2019-04-02 14:33:55.000000","halo @gojekindonesia saya barusan bermasalah ketika submit data untuk upgrade gopay. Bisakah admin @gojekindonesia… https://t.co/yyWvg2viBT","Bekasi, Indonesia, 都響 (soon)","2009-09-28 05:17:50.000000"
1113087292204175360,"2019-04-02 14:34:25.000000","@gojekindonesia barang saya ada yg tertinggal di gocar. Tapi driver sejak awal pickup saya nomornya tidak bisa dihu… https://t.co/4grv0l5sa7",,"2018-08-29 14:54:14.000000"
1113087295635111941,"2019-04-02 14:34:26.000000","@GrabID Min, kok terkait yg ini belum ada respon lanjutannya? -_-",Indonesia,"2009-07-15 06:17:49.000000"
1113087423133540352,"2019-04-02 14:34:56.000000","terimakasih buat mas Tomi driver @GrabID  tinggal di Bantar Gebang dah nolong dr kemacetan parah di Stasiun Cakung",,"2012-12-31 15:04:59.000000"
1113087601710333964,"2019-04-02 14:35:39.000000","@GrabID tolong di usut sampai tuntas, kalo perlu gw bayar kepalanya dia !!! https://t.co/uErlYRTm78","Bandung, Indonesia","2011-04-05 06:35:32.000000"
1113087830815760386,"2019-04-02 14:36:33.000000","@ahgasenic_ @GrabID pake kabut dong tadi gw... semakin tak terlihat",,"2012-03-03 02:22:02.000000"
1113087947782336512,"2019-04-02 14:37:01.000000","Alhamdulillah, saldo GoPay saya yang sempat tertunda sejak Minggu (31/3), sudah masuk malam ini. Terima kasih banya… https://t.co/JEb6wH4Z3q",Indonesia,"2009-11-01 09:20:29.000000"
1113088023510433792,"2019-04-02 14:37:19.000000","@ugihebat @CurhatKRL @CommuterLine @gojekindonesia Mantappp sambil takbiran bang",bekasi,"2010-11-23 16:44:05.000000"
1113088287927754752,"2019-04-02 14:38:22.000000","@gojekindonesia No laporan 08868262 dan 08884176","Jakarta Capital Region, Indonesia","2013-09-02 17:43:21.000000"
1113088405540237317,"2019-04-02 14:38:50.000000","@GrabID td niatnya ingin naik angkot di dekat bintara krn di stasiun cakung gak mungkin keadaan lg macet parah imba… https://t.co/Bv8wGi0ZaV",,"2012-12-31 15:04:59.000000"
1113088448473137157,"2019-04-02 14:39:00.000000","Untung di tengah jalan ada @gojekindonesia yg mau ambil 😅","Universe !","2010-05-13 08:50:16.000000"
1113088791634305035,"2019-04-02 14:40:22.000000","@gojekindonesia ini driver ga pickup saya tapi kok dia complete order? Dam gopay saya berkurang. Tolong solusinya.… https://t.co/EQYrVUlCJg","Jakarta Selatan, DKI Jakarta","2010-12-06 06:38:03.000000"
1113089063764996096,"2019-04-02 14:41:27.000000","@gojekindonesia halo, mohon informasinya apakah layanan gojek/gocar sudah tersedia di Madiun dan Magetan?",Bintaro,"2009-08-15 05:49:20.000000"
1113089086573563904,"2019-04-02 14:41:33.000000","@estradyol @GrabID Itu lah hebatnya dia","Shin Sekai","2013-06-08 02:32:48.000000"
1113089180714774528,"2019-04-02 14:41:55.000000","@ugihebat @CurhatKRL @CommuterLine @gojekindonesia Jikakakakaka..mantep gofoot...bekasi seterroooongg",UnderGodProtection,"2011-04-28 04:27:06.000000"
1113089577344884736,"2019-04-02 14:43:30.000000","@klinikhukum @gojekindonesia @GrabID Kasian,pdhl status cuma mitra bukan karyawan tapi masuk hukum. @klinikhukum… https://t.co/J4aBC02M7y",Bekasi,"2010-09-26 03:44:12.000000"
1113089841695055872,"2019-04-02 14:44:33.000000","@GrabID malam min, mohon ditindaklanjuti orderan fiktif atasnama driver firdaus no order: ADR-30237985-9-014
Trimakasih.",indonesia,"2009-08-14 08:10:16.000000"
1113089872036716544,"2019-04-02 14:44:40.000000","@GrabID saat jalan kaki liat mas tomi lg tanya alamat...gw tanya mau kemana...?
bantar  gebang...langsung gw arahin… https://t.co/TjZNbgk1b0",,"2012-12-31 15:04:59.000000"
1113089939338481664,"2019-04-02 14:44:56.000000","@gojekindonesia Dana sudah dikembalikan, feel free to unfollow but I won't be using GO-CAR anytime soon, not until you fix your service.",Indonesia,"2013-08-04 13:56:19.000000"
1113089995768651782,"2019-04-02 14:45:09.000000","Auto ngakak 🤣🤣🤣","Universe !","2010-05-13 08:50:16.000000"
1113090001804251136,"2019-04-02 14:45:11.000000","@gojekindonesia dear gojek, tolong respond email n dm saya untuk saldo gopay yg gak masuk",,"2009-05-11 03:53:39.000000"
1113090128979800065,"2019-04-02 14:45:41.000000","@gojekindonesia tolong segera perbaiki bug di tempat anda. Saya sangat miris melihatnya. Bagaimana karya anak bangs… https://t.co/OYrMQthJCT",Indonesia,"2011-01-18 04:05:07.000000"
1113090224224067590,"2019-04-02 14:46:04.000000","@GrabID XD","Batang, jawa tengah","2018-09-04 16:29:20.000000"
1113090256742449152,"2019-04-02 14:46:12.000000","@GrabID udah min, minta respon via dm yah",,"2016-03-31 03:26:41.000000"
1113090290514948096,"2019-04-02 14:46:20.000000","Wow 👏💪","Kemang Timur 21 Jaksel 🇮🇩","2014-06-12 02:42:22.000000"
1113090297536245760,"2019-04-02 14:46:21.000000","@gojekindonesia Idk I have so many - 35 notif of cancelled orders 👎🏾👎🏾👎🏾 drivers never have money more than 150k-200k, sort it out pls!",London,"2012-04-09 12:38:03.000000"
1113090464943693825,"2019-04-02 14:47:01.000000","Tadi order @gojekindonesia. Rutenya kebetulan lewatin Jl Lapangan Tembak yg nyaris tiap saat macet karna ada galian… https://t.co/WlkJFKNa5E",,"2019-01-19 18:12:27.000000"
1113090537119072257,"2019-04-02 14:47:18.000000","Buset ampe ada ginian. @GrabID bakal gini ga kalau BTS ke sini? Totalitas tanpa batas. 🤣",,"2011-04-14 01:10:34.000000"
1113090573437612033,"2019-04-02 14:47:27.000000","@GrabID @Kartikaoktavias kurasa diriku saja ternyata banyak yang seperti ini, bagaimana ini? @GrabID",,"2013-10-30 10:57:44.000000"
1113090677837983751,"2019-04-02 14:47:52.000000","@gojekindonesia Halooo dari siang saya twit dan dm tapi no respond sama sekali.... tolong info untuk top up gopay d… https://t.co/LwFW7h3ON6",,"2009-05-11 03:53:39.000000"
1113090772855808000,"2019-04-02 14:48:15.000000","@GrabID @ir_ariefyahya Woi min, jadi keluhan sy cuma di denger doang, gak diatasi?",,"2017-12-08 06:44:04.000000"
1113090815218208770,"2019-04-02 14:48:25.000000","@GrabID kenapa pesan Grab Bike udah sejam lebih nggak ada satupun driver yg mau jemput ya? Heran deh sama driver2 G… https://t.co/WsjE7hcrS0","DKI Jakarta, Indonesia","2010-08-26 07:52:22.000000"
1113090836906991616,"2019-04-02 14:48:30.000000","Selalu jatuh cinta dengan cashback nya gopay @gojekindonesia https://t.co/NsHVwVkInj","Bandung ","2013-11-30 06:08:54.000000"
1113090849435348992,"2019-04-02 14:48:33.000000","@GrabID @ir_ariefyahya Ada nomor telp buat komplain?",,"2017-12-08 06:44:04.000000"
1113090862320238592,"2019-04-02 14:48:36.000000","@gojekindonesia min gopoints kita bisa sumbangin ke kitabisa dong biar gak mubazir, engga ada vouchers yg menarik buat ditukerin",indonesia,"2009-09-21 11:56:32.000000"
1113090906540847104,"2019-04-02 14:48:47.000000","Masa 2019 masih ada penipu begini, saya dianjing-anjingin dong:( 
Tolong @gojekindonesia @kemkominfo ditindak lanju… https://t.co/XlZNt6PMRh",SPHINX,"2013-05-05 16:14:55.000000"
1113090955005968384,"2019-04-02 14:48:58.000000","@GrabID @ir_ariefyahya min tolong baca DM. Saldo OVO aku ga kebaca di aplikasi Grab.","Denpasar Barat, Indonesia","2018-10-29 18:17:28.000000"
1113091068508045312,"2019-04-02 14:49:25.000000","@Bluebirdgroup Look two identical bookings. If I get charged double what it should have cost for the trip and there… https://t.co/Kzek8LQJWl",,"2009-08-31 23:25:14.000000"
1113091348230418432,"2019-04-02 14:50:32.000000","@GrabID smbil jalan gw tanya ...mas nya ojol...iya...terus gimana ini bayarnya (kebetulan gk punya aplikasinya😉)...… https://t.co/nKoRdE1bcL",,"2012-12-31 15:04:59.000000"
1113091540279148545,"2019-04-02 14:51:18.000000","@chishabrina @gojekindonesia ya memang tolong aku dong",,"2011-11-12 13:38:21.000000"
1113091572076179456,"2019-04-02 14:51:25.000000","@gojekindonesia haloo pls kalian ngetwit via salesforce... tapi 12 jm lebih no respond untuk twit dan dm saya, ini… https://t.co/XhiEl282Vx",,"2009-05-11 03:53:39.000000"
1113091626606313472,"2019-04-02 14:51:38.000000","ini @GrabID kenapa sih sama aku :( mau pulang jam segini dikasih driver waktu tempuh buat pick up aja 10 menit.",Indonesia,"2009-12-29 06:59:42.000000"
1113091761352527872,"2019-04-02 14:52:10.000000","@GrabID saya memesan grab delivery dan sudah memberikan brg yg mw diantar, ttp saya salah klik cancel sdgkn driver… https://t.co/DpADIlRmdE","melbourne, Australia","2010-06-02 06:20:28.000000"
1113091777576218625,"2019-04-02 14:52:14.000000","@gojekindonesia mas/mba saya mau complain, pacar saya udah isi paketan via gojek dari 2 jam yang lalu tapi belum ke… https://t.co/lPduFAsZh6","Adhitama-Châteaux, France","2012-06-28 09:45:33.000000"
1113091927967064065,"2019-04-02 14:52:50.000000","Min ini withdraw nya kok belum masuk ke rekening ya? Padahal di app nya sudah complete prosesnya
@gojekindonesia https://t.co/RSfPEDoVgf",,"2010-02-02 12:29:12.000000"
1113092293798457345,"2019-04-02 14:54:17.000000","@GrabID mohon d bntu resolve scptny dan menghubungkan saya dgn driver https://t.co/puov83rjSI","melbourne, Australia","2010-06-02 06:20:28.000000"
1113092564565995520,"2019-04-02 14:55:22.000000","@GrabID Alhamdulillah...gak telat dan bikin was was orang rumah...terus gw bilang ""semoga Allah ganti rezekinya ya mas...""",,"2012-12-31 15:04:59.000000"
1113092694690000896,"2019-04-02 14:55:53.000000","@gojekindonesia  @gojektech  @gojekin",,"2019-04-02 11:49:18.000000"
1113092779398193152,"2019-04-02 14:56:13.000000","Jadi ceritanya pesen gofood, tapi ko lama banget dipos security mulu sampe ada 15 menit. Giliran nyampe gw tanya.… https://t.co/FpLHyjpDni",,"2011-12-24 00:12:39.000000"
1113092883727384576,"2019-04-02 14:56:38.000000","@GrabID PADAHAL SAYA GK JADI DIANGKUT. TAPI TETEP JALAN DAN MINTA BINTANG. GIMANA INI MIN? DI TELEPON GK DI ANGKAT… https://t.co/ERUUsadvKY","Bekasi Barat - Jakarta Pusat","2009-10-10 10:41:05.000000"
1113093062610182145,"2019-04-02 14:57:21.000000","Driver gosend @gojekindonesia bnr2 kurang ajar ngga sopan tolong ditindak lanjuti!!!!","in your imagination","2009-03-09 03:46:16.000000"
1113093106264551426,"2019-04-02 14:57:31.000000","@angreintn @gojekindonesia",,"2012-02-29 04:15:59.000000"
1113093181321633793,"2019-04-02 14:57:49.000000","@gojekindonesia Gojek  masih buka pendaftaran  ga ya?",,"2019-03-18 19:09:13.000000"
1113093322942238720,"2019-04-02 14:58:23.000000","@gojekindonesia  @gojektech  @gojekin",,"2019-04-02 11:49:18.000000"
1113093338964451329,"2019-04-02 14:58:26.000000","@GrabID dan satu yang gw ingat.... ""bila kau meringankan kesulitan saudaramu maka Allah akan mudahkan urusanmu...""",,"2012-12-31 15:04:59.000000"
1113093432480862208,"2019-04-02 14:58:49.000000","Ini kenapa ya kak? setiap saya pesan makanan pengemudi selalu sibuk.
Ada apa dengan pengemudi grab di lokasi saya?… https://t.co/g00kbp7144",,"2014-07-21 03:46:04.000000"
1113093582070591488,"2019-04-02 14:59:24.000000","Jadi ceritanya pesen gofood, tapi abangnya di pos security mulu lama banget ada kali 15 menit. Giliran nyampe gw ta… https://t.co/eVUP0lqc6D",,"2011-12-24 00:12:39.000000"
1113093593798004738,"2019-04-02 14:59:27.000000","@gojekindonesia Terima kasih atas responnya. Tapi di profilnya @gojekindonesia tidak ada opsi utk kirim DM","Ujungberung, Bandung","2009-07-20 10:58:43.000000"
1113093684621262848,"2019-04-02 14:59:49.000000","@gojekindonesia gangguan ta mbak/ mas?","Kota Malang","2009-09-16 09:27:11.000000"
1113094252546805760,"2019-04-02 15:02:04.000000","Kalo misalnya pasangan kita itu driver @GrabID , tutorial nahan cemburu gimana min? Bisa kali diup biar ga cerita m… https://t.co/UFLO0kHQpo",+62,"2011-05-04 10:39:13.000000"
1113094287204397060,"2019-04-02 15:02:13.000000","@miyanka @gojekindonesia Kurang ajar gmn ka?","Bandung, Indonesia","2014-03-14 19:42:46.000000"
1113094408801443840,"2019-04-02 15:02:42.000000","@jalurbekasi @arief_brilian @CommuterLine @gojekindonesia @YLKI_ID Gas terosss",Bekasi,"2009-10-14 07:59:13.000000"
1113094428653023233,"2019-04-02 15:02:46.000000","@gojekindonesia halo min, mohon cek DM ya","Bogor, Jawa Barat","2018-02-18 07:39:18.000000"
1113094583791968256,"2019-04-02 15:03:23.000000","@gojekindonesia padahal aku sek durung karo driver e. Kok tulisane on the way with you. Maleh kayal aplikasi iki https://t.co/jFRSRbyIW0","Kota Malang","2009-09-16 09:27:11.000000"
1113094806694113281,"2019-04-02 15:04:16.000000","@gojekindonesia Ibu saya chat lah si supir. Dia tanya ""loh mas kok jauh banget ini kan ambil paketnya di Cilandak?""… https://t.co/tZbzqFjrWZ","in your imagination","2009-03-09 03:46:16.000000"
1113095047950393344,"2019-04-02 15:05:14.000000","Ayo dong @GrabID ada diskon promo lagi",,"2009-11-30 04:29:28.000000"
1113095127939993601,"2019-04-02 15:05:33.000000","@gojekindonesia setelah itu ibu saya pesan ulang gosend nya. Dapet lagi pula si supir tadi. Dichat, masih ngga bale… https://t.co/KP90w0IZc7","in your imagination","2009-03-09 03:46:16.000000"
1113095352754696193,"2019-04-02 15:06:27.000000","@arief_brilian @CommuterLine @gojekindonesia @YLKI_ID @jalurbekasi Gas terosss",Bekasi,"2009-10-14 07:59:13.000000"
1113095508489195520,"2019-04-02 15:07:04.000000","@gojekindonesia sampai akhirnya ibu saya pesan keempat kalinya, dapet lagi driver yang sama, yang masih di Ciledug… https://t.co/jOkGRepvl0","in your imagination","2009-03-09 03:46:16.000000"
1113095583131041792,"2019-04-02 15:07:21.000000","Parah banget nih drivernya, masa pesen bayar pake gopay terus langsung trip completed pdhl jemput aja engga, chat j… https://t.co/cg6jRgdZpz",,"2016-09-13 00:01:10.000000"
1113095730443444224,"2019-04-02 15:07:57.000000","@gojekindonesia Dan sesaat setelah itu dia sms ibu saya seperti ini: https://t.co/c6Rol7NC3r","in your imagination","2009-03-09 03:46:16.000000"
1113096020358037506,"2019-04-02 15:09:06.000000","@gojekindonesia min, go point udah Tak ada ya?","DKI Jakarta, Indonesia","2014-11-10 03:46:51.000000"
1113096025743417345,"2019-04-02 15:09:07.000000","@gojekindonesia dan sesaat setelah itu si supir sms ibu saya seperti ini: https://t.co/ZhuNPBKRd9","in your imagination","2009-03-09 03:46:16.000000"
1113096114406776832,"2019-04-02 15:09:28.000000","@gojekindonesia sama min, dari tadi siang ga ada respon nih saya dari gojek:)))",,"2018-05-27 14:12:21.000000"
1113096197630291969,"2019-04-02 15:09:48.000000","+1000000 bgst susah kalo mau beli rokok hhhhhh","Inside Schrödinger cat's box.","2009-05-29 16:11:18.000000"
1113096363581964294,"2019-04-02 15:10:28.000000","@gojekindonesia mohon tanggapannya karena perlakuan driver seperti benar2 kurang ajar","in your imagination","2009-03-09 03:46:16.000000"
1113096411426373632,"2019-04-02 15:10:39.000000","@gojekindonesia please check dm yaa..","ÜT: -6.170296,106.628919","2010-06-30 03:16:55.000000"
1113096665802584065,"2019-04-02 15:11:40.000000","@gojekindonesia Udah di update min, tolong segera diupdate. Thanks.","Jakarta Selatan, DKI Jakarta","2010-12-06 06:38:03.000000"
1113096823751634950,"2019-04-02 15:12:17.000000","@gojekindonesia Udah di DM min, tolong segera di update. Thanks.","Jakarta Selatan, DKI Jakarta","2010-12-06 06:38:03.000000"
1113097169874051073,"2019-04-02 15:13:40.000000","@kang_anu @CommuterLine @gojekindonesia @GrabID Yaaa ampunnn udahh capek dijalan ditambah pula jalan jauh, kok pada… https://t.co/zO7MkoNaym",,"2012-09-10 12:22:52.000000"
1113097206142197766,"2019-04-02 15:13:48.000000","@madamaradio @annisanugerah @GrabIndonesia Thanks min....sudah pilih saya.... Love you @GrabID #PahlawanTopUp",,"2013-02-09 13:21:53.000000"
1113097248072785920,"2019-04-02 15:13:58.000000","@ketidakjelasan @GrabID Iya nih.. kode promonya udah expired semua",Indonesia,"2010-04-18 11:20:11.000000"
1113097376141635584,"2019-04-02 15:14:29.000000","@duchiwappukku @tampanselaluu @monsterizka @bupind_ @GrabID @gojekindonesia Beberapa resto di gojek juga ga ada ppn… https://t.co/4WCHZcQjsg","DKI Jakarta, Indonesia","2012-08-10 05:05:16.000000"
1113097418076291073,"2019-04-02 15:14:39.000000",@GrabID,"Somewhere Over the Rainbow","2009-09-17 22:23:25.000000"
1113097551496900608,"2019-04-02 15:15:11.000000","@gojekindonesia order gobox gabs pilih waktu nya yah min?",,"2011-02-23 02:45:43.000000"
1113097664382619652,"2019-04-02 15:15:38.000000","Kak saya tuker poin saya untuk grabfood tapi rewards nya tidak masuk @GrabID",,"2016-05-07 14:39:16.000000"
1113098006176256001,"2019-04-02 15:16:59.000000","Sebagai pengguna Grab dan instal Gojek, I can’t relate","stuck at your arms","2009-07-24 13:34:17.000000"
1113098106109779968,"2019-04-02 15:17:23.000000","@GrabID admin kok aku gapernah dapet notif kode promo jkt sih :( dapetnya sby terus, padahal aku udh ga di sby :(",,"2011-08-24 08:43:01.000000"
1113098234551971840,"2019-04-02 15:17:54.000000","@gojekindonesia @darmayuza Saya beli pulsa lewat gopulsa juga udah 1x24 jam lebih pulsa gak masuk padahal gopay uda… https://t.co/RzqdMFOPdO",,"2012-01-13 11:07:08.000000"
1113098377787408384,"2019-04-02 15:18:28.000000","Kenapa nih min @gojekindonesia apa karna poinnya kebanyakan ??? https://t.co/oqr3alR2b7","Jakarta Selatan, DKI Jakarta","2012-08-26 11:12:22.000000"
1113098400046579712,"2019-04-02 15:18:33.000000","@gojekindonesia tolong kenapa tiba2 akun saya ke suspend? Baru jg bisa install. Mohon bisa dikembalikan seperti sem… https://t.co/VsK0Si9Lue","Jakarta Pusat, DKI Jakarta","2009-10-21 12:45:58.000000"
1113098558323023878,"2019-04-02 15:19:11.000000","@GrabID saya order pake grab sameday di tokopedia , barang belum saya terima ko statusnya terkirim dan di terima ol… https://t.co/AqcxVUPcYT",jakarta,"2011-06-12 09:27:12.000000"
1113098855350820866,"2019-04-02 15:20:22.000000","@gojekindonesia @unya18 Kirain saya aja","Jakarta Selatan, DKI Jakarta","2012-08-26 11:12:22.000000"
1113099453836156930,"2019-04-02 15:22:44.000000","@GrabID hi grab, kalau pesanan grabfood saya tidak sesuai aplikasi ini kesalahan merchant apa driver ya? Saya baru… https://t.co/YPCScjJW1q",Indonesia,"2009-06-13 02:47:10.000000"
1113099584123867136,"2019-04-02 15:23:15.000000","@GrabID gausa uda di uninstall, makasi","DKI Jakarta, Indonesia","2018-05-10 08:12:21.000000"
1113099593783209985,"2019-04-02 15:23:18.000000","@GrabID DONE!","melbourne, Australia","2010-06-02 06:20:28.000000"
1113099623915184128,"2019-04-02 15:23:25.000000","@kamto_adi @IndonesiaGaruda Mbok ya udah ngirim2 barang kan udah ada @gojekindonesia terus ada @GrabID juga..kalo j… https://t.co/PCkz5IAxen",Njakarta-Mbekasi-Muntilan,"2009-06-25 07:03:29.000000"
1113099675903516683,"2019-04-02 15:23:37.000000","@gojekindonesia apps gojek saya error knp yaa tiba2 keluar sendiri ??
Padahal mau balik rumah","GALAXY ","2013-12-09 04:40:42.000000"
1113100016481169408,"2019-04-02 15:24:58.000000","Saya mah satuju wae lah 👍👍👍","Beijing 空军锡惠学院","2014-07-03 02:04:57.000000"
1113100173029175298,"2019-04-02 15:25:36.000000","@SuciAyomiii @gojekindonesia Ini aja barusan saya bales nomor laporannya tanggapannya lama banget mba, gatau deh apa yg dicek ckck","Jakarta Capital Region, Indonesia","2013-09-02 17:43:21.000000"
1113100292122263552,"2019-04-02 15:26:04.000000","@GrabID ini kennapa ""Sorry , our Drivers are busy "" ya ? padahal saya slalu kasi bintang 5 ke driver. 10q",,"2010-09-24 12:40:56.000000"
1113100739524476928,"2019-04-02 15:27:51.000000","@GrabID ini kennapa ""Sorry , our Drivers are busy "" ya ? padahal saya slalu kasi bintang 5 ke driver. thx",,"2010-09-24 12:40:56.000000"
1113100748982648832,"2019-04-02 15:27:53.000000","@gojekindonesia @gojektech saat di order infonya lagi promo, ternyata saat diinput harganya tidak sama. Ini promo g… https://t.co/Nh62eLinLy",,"2013-06-15 06:06:29.000000"
1113100849733984257,"2019-04-02 15:28:17.000000","@GrabID Mohon dibantu ada driver bodong Rudiyanto / +6285574677298 - saya belum di jemput tapi sudah jalan kabur. O… https://t.co/iF5leQAQyh",,"2013-10-26 13:21:37.000000"
1113101087802712064,"2019-04-02 15:29:14.000000","@gojekindonesia saya bisa tau ga apa benar booking id SD-2-0HY70GZ91RKO2U3GILZ9 dengan Driver a/n Komarudin mengant… https://t.co/UT9RqycfVl",Jakarta,"2010-01-26 15:34:33.000000"
1113101214810402816,"2019-04-02 15:29:44.000000","@gojekindonesia mohon di check apa benar booking id SD-2-0HY70GZ91RKO2U3GILZ9 dengan Driver a/n Komarudin mengantar… https://t.co/dXuEai9N9H",Jakarta,"2010-01-26 15:34:33.000000"
1113101590259355648,"2019-04-02 15:31:14.000000","@GrabID Respon tidak memuaskan katanya sy tidak pakai kode promo jelas pas cekout harga yg tertera 24.000 setelah p… https://t.co/FjLnDiYSmK","대한민국 서울","2010-05-26 19:28:42.000000"
1113101851178688512,"2019-04-02 15:32:16.000000","@gojekindonesia Maaf, ini saya menemui satu driver, tapi alangkah baiknya kalau diterapkan ke semua driver untuk me… https://t.co/XMxwW4beXn","in 500 meters, turn straight","2009-08-26 14:57:19.000000"
1113101909722718208,"2019-04-02 15:32:30.000000","@amalfjrn @GrabID Iya euy tanggal muda tetep rasa tanggal tua kalau nga ada promo",,"2009-11-30 04:29:28.000000"
1113101933407944704,"2019-04-02 15:32:36.000000","@didut @hadigunawan @mouldie_sep @GrabID Itu kita bisa disuspend juga kok. Kadang kaya gini klo lagi buru2 dan bikin males.","Bandung Wetan, Indonesia","2009-09-11 17:41:51.000000"
1113101998373560320,"2019-04-02 15:32:51.000000","Kenapa ya saya tuker point buat dapet rewards grabride pointnya berkurang dari 800an jd 79 tapi rewards nya gaada aneh deh @GrabID",,"2012-01-06 11:15:41.000000"
1113102288522891265,"2019-04-02 15:34:00.000000","@GrabID malam,  makanan grabfood saya yang datang berbeda sekali dengan pemesanan. Untuk pelaporan dilakukan dimana kalau boleh tau?",Indonesia,"2009-06-13 02:47:10.000000"
1113102562327056384,"2019-04-02 15:35:05.000000","@ireeennna @GrabID Saatnya pindah ke aplikasi sebelah. 😁","バンドン、インドネシア","2009-12-08 06:12:25.000000"
1113102594455429121,"2019-04-02 15:35:13.000000","Min @GrabID, ini pesennya di menu yg mana ya di app Grab?",Indonesia,"2008-06-06 06:23:36.000000"
1113102916028588034,"2019-04-02 15:36:30.000000","Eh malem2 ada yang nyolong saldo gopay 59 ribu @gojekindonesia @YLKI_ID @kemenhub151 kok bisa2nya sih ada GoCar pal… https://t.co/5AXkJBLiR9","ÜT: -6.208686,106.81886","2009-08-05 09:13:16.000000"
1113102968729952256,"2019-04-02 15:36:42.000000","@hadigunawan @mouldie_sep @GrabID Aneh² saja drivernya","Lombok Tengah, NTB","2012-09-09 08:27:17.000000"
1113102986719387648,"2019-04-02 15:36:47.000000","@GrabID bukti pemesanan dan bukti penerimaan. Mohon tindak lanjutnya https://t.co/hImnBI72DA",Indonesia,"2009-06-13 02:47:10.000000"
1113103091480506370,"2019-04-02 15:37:12.000000","@gojekindonesia @gopay_lndonesia Miinn ada promo diskon bayar listrik pln? Bales please",,"2012-04-26 13:13:22.000000"
1113103303447961600,"2019-04-02 15:38:02.000000","@GrabID tolong cek DM, bantu cek notifikasi promo akun saya kok ga bisa dipakai semua kayak promosi yg bekas nomor… https://t.co/jQrHZ71mV5","j a k a r t a","2009-12-23 10:07:29.000000"
1113103307013206016,"2019-04-02 15:38:03.000000","@GrabID miiinnn ada promo ovo untuk bayar listrik pln??? Bales please....",,"2012-04-26 13:13:22.000000"
1113103326193758209,"2019-04-02 15:38:08.000000","@GrabSG @gojekindonesia  takeaway pts for bth since @Uber is not here. Customer service, experience and focus. https://t.co/Kz9gfoZFl5","SG ","2010-06-16 10:57:49.000000"
1113103680994045953,"2019-04-02 15:39:32.000000","@gojekindonesia saya log in masuk ke akun orang. jadi bukan email saya. nomor saya dipakai orang. saya mau pake nom… https://t.co/CxCN71zPCy","Kediri, Jawa Timur","2009-11-17 05:57:23.000000"
1113104189402472448,"2019-04-02 15:41:33.000000","@GrabID min tanya dong , tadi saya melakukan transaksi dengan ovo , terus muncul pesan di inbox ""cashless payments… https://t.co/83IMJEO4Um","Malang, Jawa Timur","2019-01-06 11:36:44.000000"
1113104255676633089,"2019-04-02 15:41:49.000000","@GrabID antara memang bodong main angkut atau salah antar orang. Driver tlp balas chat dan tdk angkat telpon.",,"2013-10-26 13:21:37.000000"
1113104457259048960,"2019-04-02 15:42:37.000000","@gojekindonesia Terima kasih atas responnya. tapi masalahnya sudah selesai 20 menit setelah twit keluhan ditulis.",Surabaya,"2017-02-27 03:22:13.000000"
1113104634325852160,"2019-04-02 15:43:19.000000","@GrabID min cek DM donk🙂",,"2013-11-17 07:45:42.000000"
1113105760290889729,"2019-04-02 15:47:48.000000","@gojekindonesia min tolong dibantu registrasi gofood dong, lewat email no respons tq",,"2013-10-29 17:09:28.000000"
1113106066550677504,"2019-04-02 15:49:01.000000","@jeragustiviaa Kan ada @gojekindonesia yang siap nganterin kamu kemana""","ÜT: -6.39199,106.895404","2009-07-10 07:22:19.000000"
1113106156090679296,"2019-04-02 15:49:22.000000","@gojekindonesia Udah beres kak kendalanya sdh diatasi @gopayindonesia terimakasih udah responsif🙏🏻",Nomaden-,"2010-05-21 12:27:19.000000"
1113106218489282561,"2019-04-02 15:49:37.000000","@gojekindonesia mohon di check apa benar booking id SD-2-0HY70GZ91RKO2U3GILZ9 dengan Driver a/n Komarudin mengantar… https://t.co/uqz48FO2Y9",Jakarta,"2010-01-26 15:34:33.000000"
1113106298839527424,"2019-04-02 15:49:56.000000","@GrabID cek dm min tolong, terimakasih","Satu jok dibelakang kamu","2012-04-25 15:27:17.000000"
1113106544030175232,"2019-04-02 15:50:55.000000","@GrabID Sama-sama","Shin Sekai","2013-06-08 02:32:48.000000"
1113107455028760577,"2019-04-02 15:54:32.000000","@gojekindonesia Sudah cek dm","Yogyakarta, Indonesia","2011-12-02 05:59:20.000000"
1113107880629030912,"2019-04-02 15:56:13.000000","@GrabID Cek dm","Bandung, Indonesia","2011-04-05 06:35:32.000000"
1113108134971625472,"2019-04-02 15:57:14.000000","@GrabID Min mau tanya ini kok pemasukan pembayaran non tunai saya untuk grabdriver belum masuk yaa?",,"2019-02-18 06:45:08.000000"
1113108584315813888,"2019-04-02 15:59:01.000000","@gojekindonesia selamat malam, saya tidak bisa login ke akun saya. Dengan keterangan "" Cobalah beberapa saat lagi"".… https://t.co/4TTM2DeJhV","indonesia, denpasar","2013-03-25 17:51:17.000000"
1113108614305112065,"2019-04-02 15:59:08.000000","@GrabID @ir_ariefyahya Min saya mau tanya ini kenapa yaa belum dibayar sisa tagihan non tunainya, dengan total biay… https://t.co/svpV8z1VNu",,"2019-02-18 06:45:08.000000"
1113108828726296576,"2019-04-02 15:59:59.000000","Upin Ipin lupa umur","Mataram, Indonesia","2017-09-14 12:18:55.000000"
1113108903867248640,"2019-04-02 16:00:17.000000","Malam @gojekindonesia mohon bantuannya untuk nomor tiket ini yah : 08926806..terima kasih",,"2009-05-27 08:11:09.000000"
1113109361209962496,"2019-04-02 16:02:06.000000","@hadigunawan @GrabID pernah ngalamin gini, kebetulan lagi senggang, tak tungguin sampe driver nya yg cancel 🤭",,"2009-09-21 15:21:28.000000"
1113109465216180225,"2019-04-02 16:02:31.000000","CS nya @gojekindonesia juga enggak membantu.. mana ada yang angkat no telpon keluhan ... @YLKI_ID @kemenhub151 sete… https://t.co/CcqjGqvwun","ÜT: -6.208686,106.81886","2009-08-05 09:13:16.000000"
1113109721794273281,"2019-04-02 16:03:32.000000","Nomor penipu GoCar nya si mitra @gojekindonesia yang katanya unicorn itu... @YLKI_ID @kemenhub151 https://t.co/tXIKJpdWv8","ÜT: -6.208686,106.81886","2009-08-05 09:13:16.000000"
1113109756732858369,"2019-04-02 16:03:41.000000","Dear @gojekindonesia butuh respon secepatnya DM saya",,"2009-07-15 04:40:39.000000"
1113109939726106624,"2019-04-02 16:04:24.000000","@gojekindonesia hari ini saya order GoCar. Order sudah on the way bahkan complete ketika driver bahkan tidak menjem… https://t.co/HjNOcmIA19",,"2011-01-28 14:28:01.000000"
1113109956012605441,"2019-04-02 16:04:28.000000","@indrastt @Widhi_Waskito @gojekindonesia @GrabID juga kak 😀",,"2015-11-27 03:35:42.000000"
1113109982218616833,"2019-04-02 16:04:35.000000","@gojekindonesia hi min, maaf mau tolong cancel orderan gofood saya dengan id F-287386679. Mohon secepatnya di proses",,"2016-12-01 12:17:11.000000"
1113112975156555776,"2019-04-02 16:16:28.000000","selamat malam, saya tidak bisa login ke akun saya. Dengan keterangan "" Cobalah beberapa saat lagi"". Mohon segera di… https://t.co/9IJHYCQ5EI","indonesia, denpasar","2013-03-25 17:51:17.000000"
1113113424135774208,"2019-04-02 16:18:15.000000","@detikcom @detikinet Terimakasih @GrabID","IG : rizal.septyan","2012-08-31 12:11:27.000000"
1113113505559801856,"2019-04-02 16:18:35.000000","Gue gak akan miskin sih gara2 uang Rp 59 ribu, tapi kepercayaan ke @gojekindonesia makin lama semakin miskin sih. A… https://t.co/fMfwOxpNy0","ÜT: -6.208686,106.81886","2009-08-05 09:13:16.000000"
1113113638317854721,"2019-04-02 16:19:06.000000","Akhirnya ngalamin drama ojol juga 😂😂 gimana nih @gojekindonesia tlg kasih bonus abang ni yg banyak ya 😉 https://t.co/mlFtdR1mLm","Kota Padang, Sumatera Barat","2011-09-20 14:10:29.000000"
1113114075955814401,"2019-04-02 16:20:51.000000","#ILCSeranganFajar lagi nonton dapet order nih @gojekindonesia 17 ribu segitu . Dari pada ngomongin amplop mending a… https://t.co/scnfIfyFnR",-,"2010-11-17 15:10:55.000000"
1113114139793084416,"2019-04-02 16:21:06.000000","@rahmatr10 @GrabID iyadah nyesel saya :"" mana dinotice nya lama lagi",,"2013-12-26 10:36:14.000000"
1113114188124004352,"2019-04-02 16:21:17.000000","@gojekindonesia dear admin, apa bisa bantu blokir akun gocar driver orang tua saya yang dihack orang dan digunakan untuk penipuan?","Bekasi & Malang","2009-07-06 04:00:00.000000"
1113114211876347904,"2019-04-02 16:21:23.000000","@gojekindonesia @jannavnty Min, saya kasusnya sama nih. Tapi pulsa reguler indosat. Belinya dari kemarin pagi. Repo… https://t.co/Sifrt1ANCz",,"2009-11-05 14:30:17.000000"
1113115100120965120,"2019-04-02 16:24:55.000000","@trya_sovi @antedeusian @GrabID He aku lagek sadar lak jeneng twitter e adn ga manusiawi","Malang, Jawa Timur","2019-01-05 14:04:31.000000"
1113115450966024197,"2019-04-02 16:26:18.000000","@trya_sovi @antedeusian @GrabID Ora","Malang, Jawa Timur","2019-01-05 14:04:31.000000"
1113115808865984513,"2019-04-02 16:27:44.000000","@GrabID Saya sudah membuat laporan via email. Terima kasih",Indonesia,"2009-06-13 02:47:10.000000"
1113116056938143747,"2019-04-02 16:28:43.000000","@gojekindonesia RB-2226756561",,"2011-01-28 14:28:01.000000"
1113116311972790272,"2019-04-02 16:29:44.000000","@gojekindonesia @gojektech @GrabID please saran, buat di aplikasi driver dikasih kolom gender. jadi driver gak perl… https://t.co/3jtO6MOM45","Bandung, Jawa Barat","2010-01-12 10:30:39.000000"
1113116791625007105,"2019-04-02 16:31:38.000000","@mellagratia @gojekindonesia hallo @gojekindonesia , korban penipuannya sudah semakin banyak beberapa jam terakhir,… https://t.co/Cil0PqGCW3",Indonesia,"2009-10-03 20:47:46.000000"
1113116917127045120,"2019-04-02 16:32:08.000000","@melindawdyt @gojekindonesia gabskal masuk km di protect",,"2010-02-04 14:03:22.000000"
1113117010156646400,"2019-04-02 16:32:30.000000","@nabilaahnn @GrabID Cari gebetan baru dong biar bisa antar jemput🤭","Jakarta Capital Region, Indonesia","2012-01-10 09:16:05.000000"
1113117506401521664,"2019-04-02 16:34:28.000000","@infojakarta Klo dianter pake @GrabID mahal gak ya?","Kalimantan Tengah, Indonesia","2017-03-11 06:46:08.000000"
1113117538932498432,"2019-04-02 16:34:36.000000","Cybercrime @gojekindonesia as its driver stole a sum of money from my @gopayindonesia balance with none services I… https://t.co/MlJSlYo9Jy","ÜT: -6.208686,106.81886","2009-08-05 09:13:16.000000"
1113117574546378752,"2019-04-02 16:34:45.000000","Jangan sok2 bilang puter otak, mereka jg puter otak bagaimana caranya S.Pendidikan tetep dpt bekerja sesuai dgn jur… https://t.co/RJgnBf371b",,"2012-10-13 04:14:52.000000"
1113117857154457600,"2019-04-02 16:35:52.000000","Cybercrime @gojekindonesia @gopayindonesia @CCICPolri tanpa layanan yang didapat customer @YLKI_ID @kemenhub151 https://t.co/eAjqpx9X3S","ÜT: -6.208686,106.81886","2009-08-05 09:13:16.000000"
1113118738528665600,"2019-04-02 16:39:22.000000","@GrabID @Bbanghonie Kantor saya pakai corporate, namun semenjak saya baca tweet ini saya jadi ragu untuk perpanjang.. terima kasih grab :)",http://127.0.0.1,"2010-03-14 09:47:04.000000"
1113118855646199808,"2019-04-02 16:39:50.000000","@GrabID gitu aja teros sampai kapan? basa basi terus?",,"2017-12-08 06:44:04.000000"
1113118931156316160,"2019-04-02 16:40:08.000000","@GrabID saya habis main sama temen di daerah graha raya bintaro. trus kami pulangnya masing2 pesen ojol.. 

Dan dia… https://t.co/6FvshQqJCC",,"2010-04-25 00:46:44.000000"
1113119139034390528,"2019-04-02 16:40:58.000000","min @gojekindonesia yang lain komplainnya dibalas, kok saya engga sih :( bener bener jadi sulit komunikasi nib sama driverny.","ÜT: -6.18046,106.792131","2009-06-28 23:57:28.000000"
1113119256340660225,"2019-04-02 16:41:26.000000","Pelatihan : Postingan ini cuma numpang lewat aja ya pendengar FeMale. Saatnya #UninstallKhawatir, karena ribuan dri… https://t.co/O9oDQCwgLB","Jl.Adityawarman no. 71 Jakarta","2009-04-15 08:52:13.000000"
1113119548926976000,"2019-04-02 16:42:35.000000","Hi @gojekindonesia , terima kasih, topup nya udah masuk :)) Makasii @gojektech 👏","Tarutung, Indonesia","2012-03-04 11:55:56.000000"
1113120007771238400,"2019-04-02 16:44:25.000000","@gojekindonesia @darmayuza Darma siapeeee? Darma lah bangsat hahahaha, kek nama camat wakaka","ÜT: -6.231618,106.9860019","2010-08-31 09:16:59.000000"
1113121252237963264,"2019-04-02 16:49:21.000000","@irawan_nathasia @trya_sovi @GrabID Ante = sebelum
Deusian = tuhan",,"2010-05-22 04:07:17.000000"
1113121263470338049,"2019-04-02 16:49:24.000000","@hadigunawan @mouldie_sep @GrabID Sudah gk pd butuh duit, tpi hidup di jalan. Kan totlo","Baghdad irak","2014-09-09 15:34:06.000000"
1113443688120590337,"2019-04-03 14:10:36.000000","@GrabID Sudah dilakukan pengiriman data atas account yg terkena suspend a.n Anisa Ifandari lewat DM. Mohon ditindak lanjuti Tks🙏",,"2018-10-22 02:32:07.000000"
1113443782198824965,"2019-04-03 14:10:59.000000","@tinystarkeu @GrabID @hewlabitj bego😂😂😂",,"2019-01-29 13:45:00.000000"
1113444241936539649,"2019-04-03 14:12:48.000000","@fahimraa @GrabID Selama masih memungkinkan untuk jalan KQ knp harus naik Grab?","Special Region of Yogyakarta","2011-06-12 08:13:53.000000"
1113444524171255808,"2019-04-03 14:13:56.000000","Court 1. Beregu putra. D : Andhika/Naufal/Iqbal (UB) vs Firhan/M.Agung/Gilang (Unpad)
Game 2. Skor : 18-21

LIMA Ba… https://t.co/j5gHz5gwrG",Indonesia,"2012-05-04 10:29:57.000000"
1113444661958303744,"2019-04-03 14:14:28.000000","Selamat malam min, barusan saya abis naik grab tapi ternyata di cancel abangnya, pdhl saya naik &amp; bayar cash.… https://t.co/JnovF1fEMU",,"2009-12-20 10:20:10.000000"
1113444780971659264,"2019-04-03 14:14:57.000000","@gojekindonesia Sdh sya DM trmksh bnyk","Bogor Timur, Indonesia","2016-04-10 07:53:52.000000"
1113444902719774720,"2019-04-03 14:15:26.000000","[RESULT] Game over Firhan/M.Agung/Gilang (Unpad) menang atas Andhika/Naufal/Iqbal (UB) vs
Skor: 21-19 , 21-18

LIMA… https://t.co/AcshC2jJuK",Indonesia,"2012-05-04 10:29:57.000000"
1113445182576291840,"2019-04-03 14:16:32.000000","[NEXT] Court 1. Beregu Putra. MS2 : Achmad Rizal Lullah (UB) vs Azka Ananda (Unpad)

LIMA Badminton Nationals Seaso… https://t.co/71wtPtg3P7",Indonesia,"2012-05-04 10:29:57.000000"
1113445344468033542,"2019-04-03 14:17:11.000000","@harrislutfi @gojekindonesia Saya sudah bilang kalo ""reported"" di situ. So far progress-nya masih slow dari pihak CS gojek.","Jakarta, Indonesia","2008-08-01 08:23:19.000000"
1113445462843854848,"2019-04-03 14:17:39.000000","[RESULT] Game over Firhan/M.Agung/Gilang (Unpad) menang atas Andhika/Naufal/Iqbal (UB)
Skor: 21-19 , 21-18

LIMA Ba… https://t.co/2Ptg8Mgty4",Indonesia,"2012-05-04 10:29:57.000000"
1113445639315001344,"2019-04-03 14:18:21.000000","@GrabID sudah diinfokan via DM @GrabID","Bandung, Indonesia","2013-04-02 07:19:48.000000"
1113446009911144449,"2019-04-03 14:19:50.000000","Ternyata admin-admin @GrabID pada males scroll isi dm ya.
Pantas banyak konsumen dan driver yg protes lemotnya kinerja admin-admin Grab",Bandung,"2018-03-10 14:16:14.000000"
1113446228681826304,"2019-04-03 14:20:42.000000","@radenrauf @gojekindonesia ujung ujung nya iklan 😭",Indonesia,"2013-08-27 11:52:48.000000"
1113446320117669888,"2019-04-03 14:21:04.000000","@GrabID Ternyata admin-admin @GrabID pada males scroll isi dm ya.
Pantas banyak konsumen dan driver yg protes lemot… https://t.co/6uWojr0tX4",Bandung,"2018-03-10 14:16:14.000000"
1113446492432359424,"2019-04-03 14:21:45.000000","@azharfattah_ @GrabID Mungkin sih mas tp penambahannya lebih dr 50% harganya, Aku kasih 5 bintang jg drivernya biar ga kenapa napa","Jakarta Timur, DKI Jakarta","2017-07-28 06:00:24.000000"
1113446641816690688,"2019-04-03 14:22:20.000000","@azharfattah_ @GrabID Makasih juga buat infonya mas","Jakarta Timur, DKI Jakarta","2017-07-28 06:00:24.000000"
1113446991827152897,"2019-04-03 14:23:44.000000","Eh si bowo mana dah @GrabID",,"2018-05-21 07:08:19.000000"
1113447273504006144,"2019-04-03 14:24:51.000000","Court 1. Beregu putra. MS2 : Achmad Rizal Lullah (UB) vs Azka Ananda (Unpad)
Game 1. Skor Sementara : 2-4

LIMA Bad… https://t.co/xtv18wAznF",Indonesia,"2012-05-04 10:29:57.000000"
1113447519395078147,"2019-04-03 14:25:50.000000","Gatau emang kurang update atau emang baru, tapi manthul juga nih ada go-pertamina, kurang keren dimana lagi… https://t.co/1B3i6A50S4","Bandung, Indonesia","2011-04-30 12:13:08.000000"
1113448053338279937,"2019-04-03 14:27:57.000000","@gojekindonesia saya tidak dapat login ke go-biz, padahal nomer telp yg digunakan sudah terdaftar di go-food","Pasar Rebo, Indonesia","2017-03-28 04:46:05.000000"
1113448228882591744,"2019-04-03 14:28:39.000000","Alangkah indahnya Pemimpin Tak punya HUTANG... Rakyat Sehat .. Tuhan Yesus memberkati Pemimpin JUJUR CERDAS IKHLAS… https://t.co/LpkiMCLDeD","Kota Manado, Sulawesi Utara","2019-03-26 03:02:06.000000"
1113448476644245504,"2019-04-03 14:29:38.000000","Gojeknya sibuk expansi bro","ÜT: -6.22655,106.615087","2009-07-02 09:19:07.000000"
1113448614087450624,"2019-04-03 14:30:11.000000","@muhrafihdyt29 @GrabID Wah kalau sampai 50% sih jackpot🤣","Purbalingga, Indonesia","2012-02-22 11:35:32.000000"
1113448976013910018,"2019-04-03 14:31:37.000000","@GrabID Min, DM diliat bisa kali, becanda mulu niii 😌","Behind the camera","2009-05-26 03:34:14.000000"
1113449345439928320,"2019-04-03 14:33:05.000000","Tolong cek dm saya @GrabID","Daerah Istimewa Yogyakarta","2011-06-25 05:09:15.000000"
1113449400615886848,"2019-04-03 14:33:18.000000","@GrabID kok gamau ya? Daritadi pesan gini terus😩 https://t.co/VyIdlwcXuj",,"2012-07-03 13:41:16.000000"
1113449578802479111,"2019-04-03 14:34:01.000000","@GrabID Menahan sekuat tenaga sambil merinding2 🤣🤣😭😭","D.I. Yogyakarta - Banjarmasin ","2013-07-29 08:40:53.000000"
1113449646532157440,"2019-04-03 14:34:17.000000","@GrabID tolong cek DM ya, terima kasih.","40265. Bandung Indonesien.","2009-06-15 00:56:00.000000"
1113450084753059840,"2019-04-03 14:36:01.000000","@gojekindonesia daftar gojek udh sebulan blm di panggil², koq lama bgt min.","Kota Bogor, Jawa Barat","2012-10-19 11:06:42.000000"
1113450171885441024,"2019-04-03 14:36:22.000000","@lifanurfauzi @gojekindonesia Ngakak wkwkqk","Banjarmasin - Depok","2009-08-21 03:28:53.000000"
1113450317083869184,"2019-04-03 14:36:57.000000","@GrabID Semua kalian yg menjawab kayak gini terus. Udah banyak ku kirim bukti""nya tapi jawaban kalian sama aja. Dec… https://t.co/YdHhRXKr01","Keep calm and don't Stalk","2011-08-20 02:25:19.000000"
1113450372532658182,"2019-04-03 14:37:10.000000","@gojekindonesia min memang benar ada event harkulnas sama mingkulnas? Soalnya saya dapet email tentang outlet yg te… https://t.co/RUsx2sxk0b",,"2018-12-24 14:43:17.000000"
1113450385153204224,"2019-04-03 14:37:13.000000","@GrabID 👎👎👎👎👎","Keep calm and don't Stalk","2011-08-20 02:25:19.000000"
1113450513943523329,"2019-04-03 14:37:44.000000","Court 1. Beregu putra. MS2 : Achmad Rizal Lullah (UB) vs Azka Ananda (Unpad)
Game 1. Skor : 21-15

LIMA Badminton N… https://t.co/GvMX92tCIe",Indonesia,"2012-05-04 10:29:57.000000"
1113450945239613440,"2019-04-03 14:39:26.000000","@ayunqee @GrabID gak ada fiturnya, sis. ku pakai tunai",Yogyakarta,"2009-07-24 02:33:44.000000"
1113451227369447424,"2019-04-03 14:40:34.000000","@GrabID Kalian bilang 5 hari kerja. Udah 2 hari ini tetap aja gak masuk saldonya.. 👎👎👎👎👎","Keep calm and don't Stalk","2011-08-20 02:25:19.000000"
1113451279794167814,"2019-04-03 14:40:46.000000","@gojekindonesia bgmna cara,y mnjadi driver gojek??
Mohon info,y",Indonesia,"2018-01-14 14:43:55.000000"
1113451347171434496,"2019-04-03 14:41:02.000000","@gojekindonesia hai, ini saya mau login kok gabisa ya? https://t.co/rRNmmwJp9F",Tangerang,"2013-03-14 07:05:20.000000"
1113451499483357185,"2019-04-03 14:41:39.000000","@gojekindonesia bisa respond ga ? Customer service di telpon ga bisa bisa sejak sore,  ni gopay adik saya di rampok. https://t.co/O3vkmsFwUV",jakarta,"2010-05-07 11:22:44.000000"
1113451669851766785,"2019-04-03 14:42:19.000000","@GrabID dm saya kok gada kelanjutan lagi ya","Purwokerto - Cikarang","2011-11-14 09:01:23.000000"
1113451838253068290,"2019-04-03 14:42:59.000000","@gojekindonesia saya beli makanan pada saat layar aplikasi mencantumkan harga 21 ribu Rupiah (karena ada tiga jenis… https://t.co/rS49fWlOpi",,"2013-09-29 12:45:10.000000"
1113451840497000448,"2019-04-03 14:43:00.000000","@gojekindonesia Cek gan",,"2011-01-23 09:14:34.000000"
1113451881861222400,"2019-04-03 14:43:10.000000","@gojekindonesia malam min, pendaftaran gocar jabodetabek masih dibuka?",Tangerang,"2016-11-06 12:11:22.000000"
1113452067345932288,"2019-04-03 14:43:54.000000","@GrabID ini kenapa kok gak bisa login ya kak ? https://t.co/nQeRzsx7vp","Jl. Samping SMA 10 Pekanbaru","2009-07-26 12:38:09.000000"
1113452086346244096,"2019-04-03 14:43:58.000000","Court 1. Beregu putra. MS2 : Achmad Rizal Lullah (UB) vs Azka Ananda (Unpad)
Game 2. Skor sementara: 11-5

LIMA Bad… https://t.co/Kgv6nxcxOk",Indonesia,"2012-05-04 10:29:57.000000"
1113452214687657984,"2019-04-03 14:44:29.000000","@GrabID Padahal kodenya udah betul..","Jl. Samping SMA 10 Pekanbaru","2009-07-26 12:38:09.000000"
1113452495177625600,"2019-04-03 14:45:36.000000","@tinystarkeu @GrabID @hewlabitj WKWKWK PINDAH HALUAN ANJAY","rumah kita","2019-01-30 08:01:22.000000"
1113452938729385984,"2019-04-03 14:47:22.000000","@gojekindonesia halo driver saya udah nyelesein order tanpa jemput dari sore dan sampe sekarang email saya ga ada k… https://t.co/9cjEBQFwis",,"2018-12-24 04:21:02.000000"
1113452949408165888,"2019-04-03 14:47:24.000000","@TeguhHumanikers @gopayindonesia @gojekindonesia @sahabatalfamart Kami mohon maaf mengenai hal ini. Bisa diinfokan… https://t.co/0BSUZe9ZOW","ÜT: -6.208947,106.627381","2010-01-11 09:15:33.000000"
1113453073110720512,"2019-04-03 14:47:54.000000","@gojekindonesia malam admin, saya beli paket data xl di aplikasi gojek, dari tadi pagi belinya, tapi paket belum ma… https://t.co/1Isq6Jdi3d","DKI Jakarta, Indonesia","2018-09-29 16:54:11.000000"
1113453145802149888,"2019-04-03 14:48:11.000000","Baru saja pesan GoFood via @gojekindonesia beli makanan ke @KFCINDONESIA ITC BSD dan shock bahwa isi nya seperti in… https://t.co/75v1VjPIE5",Indonesia,"2013-10-04 02:55:17.000000"
1113453185954275333,"2019-04-03 14:48:21.000000","[RESULT] Game over Achmad Rizal Lullah (UB) menang atas Azka Ananda (Unpad)
Skor: 21-15, 21-10

LIMA Badminton Nati… https://t.co/N9UeWBPuYY",Indonesia,"2012-05-04 10:29:57.000000"
1113453511700647936,"2019-04-03 14:49:38.000000","@GrabID Tapi sampe sekarang masih belum direspon?","Bekasi, West Java","2013-03-30 05:24:35.000000"
1113453845168803840,"2019-04-03 14:50:58.000000",@GrabID,,"2019-04-02 04:59:19.000000"
1113453921362538498,"2019-04-03 14:51:16.000000","Solusi hindari kemacetan,
Naiklah @GrabID https://t.co/Ks7uQHgyfX","Kota Surabaya, Jawa Timur","2017-02-21 08:02:25.000000"
1113454010835525634,"2019-04-03 14:51:37.000000","@aditadinoto_ @gojekindonesia Wkwkwkw kadang aku dapet yg gak ramah gitu beb","Kota Surabaya, Jawa Timur","2014-06-17 13:58:38.000000"
1113454166741909510,"2019-04-03 14:52:14.000000","@RiskaLPutri @gojekindonesia Coba setting locationnya ""high accuracy"", kadang cuma ""phone only"". Gue jg gt hahaha.","Somewhere in Between","2010-05-21 04:38:03.000000"
1113454221716627456,"2019-04-03 14:52:28.000000","@HoofdbureauID @GrabID Iku cukup e gae bocah pek 😂",,"2010-05-18 05:26:24.000000"
1113454598658752513,"2019-04-03 14:53:57.000000","@gojekindonesia baca DM saya dong, tks!","Jakarta Capital Region","2009-07-09 14:24:55.000000"
1113454611518476288,"2019-04-03 14:54:01.000000","@GrabID Ok",,"2019-03-18 17:00:48.000000"
1113454654082375681,"2019-04-03 14:54:11.000000","@ChoMeong @gojekindonesia 😒kesel aq beb 😂udah naik kereta berdiri, sampe gubeng di maenin ojol ! Sakit hati luna maya","Jombang, Indonesia","2018-01-13 09:10:04.000000"
1113454740409540608,"2019-04-03 14:54:31.000000","[NEXT] Court 1. Beregu putra. MD2: Adhika Ariyadi/Naufal Hafizhariyanto (UB) vs Gilang Yudha/Muhammad Agung (UNPAD)… https://t.co/udhz9W83ky",Indonesia,"2012-05-04 10:29:57.000000"
1113454964053991424,"2019-04-03 14:55:25.000000","@GrabID Saya mau komplain. Tadi jam 9 saya order makanan dan beberapa menit kemudian pesanan langsung diselesaikan… https://t.co/q32nOa5avo","Jakarta Selatan, DKI Jakarta","2018-09-26 01:58:43.000000"
1113454965257789440,"2019-04-03 14:55:25.000000","@gojekindonesia oke admin, saya dm ya","862 testimoni on pinned.","2011-09-12 21:55:33.000000"
1113455122183446530,"2019-04-03 14:56:02.000000","Ntar kalo BTS konser di Jakarta gini juga dong😋 @GrabID","Blue Side","2011-01-16 06:03:28.000000"
1113455253267968002,"2019-04-03 14:56:34.000000","Kram silit e",sub-yk-jkt,"2009-11-14 02:40:36.000000"
1113455298486738949,"2019-04-03 14:56:44.000000","@gojekindonesia sudah. tolong di cek ya, thankyou",,"2018-11-16 12:45:25.000000"
1113455313548509184,"2019-04-03 14:56:48.000000","@gojekindonesia mohon respon secepatnya dong, admin. tweet ke 3 nih. saya beli paket data xl di aplikasi gojek, dar… https://t.co/GyD2DEmk0v","DKI Jakarta, Indonesia","2018-09-29 16:54:11.000000"
1113455796438806528,"2019-04-03 14:58:43.000000","@GrabID tolong kepada admin,baca dm saya sekarang..terima kasih","Medan-North Sumatera.Indonesia","2012-01-24 05:05:56.000000"
1113456036675936259,"2019-04-03 14:59:40.000000","Coba @GrabID nyediain jasa minjem mantol,  pasti bermanfaat kayak sekarang! 

 ""berteduh mantol ketinggalan""","Cicalengka, Indonesia","2017-11-23 05:36:07.000000"
1113456347071148032,"2019-04-03 15:00:54.000000","@maharaniL @gojekindonesia Wah, bagaimana bisa di bajak kak?",Jakarta,"2016-04-24 16:11:31.000000"
1113456609584275461,"2019-04-03 15:01:57.000000","@GrabID Min naik grab ke CA bisa ga?",N-A-S-A,"2019-01-24 00:09:28.000000"
1113456617675055107,"2019-04-03 15:01:59.000000","@gojekindonesia kebanyakan kasih notif promo padahal bisa diliat pas buka apps, mau matiin notif entar kalo driver… https://t.co/MvD58Qh4Uh",Indonesia,"2009-12-18 13:45:26.000000"
1113456751876091907,"2019-04-03 15:02:31.000000","Court 1. Beregu putra. MD2: Adhika Ariyadi/Naufal Hafizhariyanto (UB) vs Gilang Yudha/Muhammad Agung (UNPAD)
Skor s… https://t.co/4lTSaM2sl7",Indonesia,"2012-05-04 10:29:57.000000"
1113456821925081090,"2019-04-03 15:02:48.000000","@alfamart @gopayindonesia @gojekindonesia @sahabatalfamart sudah di DM",,"2013-09-13 06:13:21.000000"
1113457059863732224,"2019-04-03 15:03:44.000000","Hai @GrabID selama malam
Aku mau tanya, kenapa ya aku gabisa aktivasi akun OVO di akun grab aku? Setiap aku aktivas… https://t.co/osUoYsOJez",,"2009-05-27 09:54:31.000000"
1113457893641035776,"2019-04-03 15:07:03.000000","@gojekindonesia tolong check dm ya admin, sudah saya dm detail nya.","862 testimoni on pinned.","2011-09-12 21:55:33.000000"
1113458308415807488,"2019-04-03 15:08:42.000000","JADI APA CUMA GUA DOANG YANG UDAH MATI-MATIAN NGUMPULIN POIN DARI TOKEN MUTER ITU TUH DARI @gojekindonesia TERUS SE… https://t.co/M1xgoPRIiF","Indonesia - USA","2009-04-17 04:54:56.000000"
1113458428272238592,"2019-04-03 15:09:11.000000","Court 1. Beregu putra. MD2: Adhika Ariyadi/Naufal Hafizhariyanto (UB) vs Gilang Yudha/Muhammad Agung (UNPAD)
Game 1… https://t.co/4IjH4tOWyq",Indonesia,"2012-05-04 10:29:57.000000"
1113459170907348992,"2019-04-03 15:12:08.000000","@GrabID Di banjarmasin grabfood nggak bisa pake ovo",,"2012-10-16 07:54:14.000000"
1113459308862201858,"2019-04-03 15:12:40.000000","@GrabID halo saya waktu itu pernah beli voucher chatime senilai 50rb dengan harga 25rb, tapi kenapa voucher nya dic… https://t.co/lm3anHSyzv",,"2018-12-09 09:19:03.000000"
1113459374595272704,"2019-04-03 15:12:56.000000","@GrabID malam, bisa info gmna caranya advance booking? Thx","Bandung, Indonesia","2010-07-14 12:24:27.000000"
1113459573648633857,"2019-04-03 15:13:44.000000","Rute hari ini naik turun tangga bolak balik halte @mrtjakarta - @TransJakarta - naik turun @gojekindonesia pula. Bi… https://t.co/RH7BXXd4Xa",Winterfell,"2019-03-31 12:46:30.000000"
1113459752321687552,"2019-04-03 15:14:26.000000","@gojekindonesia hi gojek, any problems with my acc? Please help me, i want to order gofood right now, or must i ord… https://t.co/PFrYGKhweg",Hadiningrat,"2009-10-08 08:19:13.000000"
1113459865211494401,"2019-04-03 15:14:53.000000","@TeguhHumanikers @gopayindonesia @gojekindonesia @sahabatalfamart Baik. Sudah kami respon kembali yah, Sahabat. :) ^ad","ÜT: -6.208947,106.627381","2010-01-11 09:15:33.000000"
1113460096690835457,"2019-04-03 15:15:48.000000","Di aplikasi @gojekindonesia saya cuma bisa order goride dan gocar. Selebihnya, inilah respon di hp saya. Kenapa… https://t.co/ByY0mlM8CF",,"2012-04-10 14:28:05.000000"
1113460328430428163,"2019-04-03 15:16:44.000000","@gojekindonesia nanya min, nomor tilpon gojek (utk gofood partner) yg bisa dihubungi? nuhun",Indonesia,"2017-08-29 07:29:00.000000"
1113460344507080704,"2019-04-03 15:16:47.000000","@GrabID tolong diperhatikan driver seperti ini! https://t.co/5WJlrkmuM1",,"2013-05-25 15:11:43.000000"
1113460443236904962,"2019-04-03 15:17:11.000000","@gojekindonesia mohon dengan sangat tolong di tindak driver ini, dan apakah bisa saldo gopay balik kembali, kasus :… https://t.co/C5bcW4ROQ0","DKI Jakarta, Indonesia","2009-12-20 10:36:45.000000"
1113460697914966016,"2019-04-03 15:18:12.000000","Court 1. Beregu putra. MD2: Adhika Ariyadi/Naufal Hafizhariyanto (UB) vs Gilang Yudha/Muhammad Agung (UNPAD)
Game 2… https://t.co/owE4fd1gwG",Indonesia,"2012-05-04 10:29:57.000000"
1113460824738127873,"2019-04-03 15:18:42.000000","Haiiii @gojekindonesia saya top up 100ribu sih cuman, melalui Mobile Banking Mandiri, tanggal 2 april 2019 pagi tap… https://t.co/BiAxqXKdxl","Here, There, Everywhere","2009-09-19 10:15:20.000000"
1113460947325116416,"2019-04-03 15:19:11.000000","@gojekindonesia malam ka, kalo mau log in apk gojek pake akun lama tapi nomernya abis dicuri gimana ya ka? terimakasih.",,"2018-08-31 10:14:45.000000"
1113461111519502336,"2019-04-03 15:19:50.000000","@telusurtvOne 04 April 2019. Kenaikan pesawat domestik, Lion Air jatuh, first travel, air asia. Smg @gojekindonesia… https://t.co/01mxabLlRh","Kota Surabaya, Jawa Timur","2009-07-23 15:05:24.000000"
1113461117903233024,"2019-04-03 15:19:52.000000","@gojekindonesia Halo admin. Tolong dong bapak ini diajarin sopan santun. Jelas2 saya kalo mesen selalu pake alamat… https://t.co/yhNvEKV6SU","akun suka suka.","2017-05-02 01:24:19.000000"
1113462144022900737,"2019-04-03 15:23:56.000000","@gojekindonesia hallo gojek apakah, gojek sudah beroprasi di Bangakalan, Madura?",Madura-Bandung,"2012-04-14 12:26:57.000000"
1113462208816504833,"2019-04-03 15:24:12.000000","Tag ah @gojekindonesia 
Kali aja dibaca 🤗","Bandung - Jakarta","2012-11-09 12:31:42.000000"
1113462245638295552,"2019-04-03 15:24:21.000000","@gojekindonesia Halo! Saya ingin bertanya, abang saya seorang Go-Send tetapi kenapa tidak pernah mendapat orderaan… https://t.co/2V2vccFhqu",,"2014-03-10 11:10:33.000000"
1113462273304027137,"2019-04-03 15:24:27.000000","@GrabID kenapa saldo ovo saya tidak bertambah ketika top up padahal email dan nomor telp sudh sama. Mohon bantuannya","Kota Bandung, Indonesia","2017-12-03 17:22:17.000000"
1113462279041740802,"2019-04-03 15:24:29.000000","Court 1. Beregu putra. MD2: Adhika Ariyadi/Naufal Hafizhariyanto (UB) vs Gilang Yudha/Muhammad Agung (UNPAD)
Game 2… https://t.co/CJfFm0frvZ",Indonesia,"2012-05-04 10:29:57.000000"
1113462412378820608,"2019-04-03 15:25:00.000000","@verywirawan @doni_e @gojekindonesia @gopayindonesia Untuk case saya, aturannya jelas kok. Diskon 20 persen atau ma… https://t.co/kqQT3HDDUy","ÜT: 22.276969,114.1747","2009-10-01 16:19:43.000000"
1113463114865893376,"2019-04-03 15:27:48.000000","Court 1. Beregu putra. MD2: Adhika Ariyadi/Naufal Hafizhariyanto (UB) vs Gilang Yudha/Muhammad Agung (UNPAD)
Rubber… https://t.co/wjfcoUl7Jv",Indonesia,"2012-05-04 10:29:57.000000"
1113463139671007232,"2019-04-03 15:27:54.000000","@GrabID DM dong min","Kota Bogor, Jawa Barat","2012-10-19 11:06:42.000000"
1113463544148779008,"2019-04-03 15:29:30.000000","@GrabID min, saya mau login akun grab saya, tapi gk bisa. Sudah klik ""kunjungi pusat bantuan"" tapi tidak ada apa2.… https://t.co/h1oBiyo94I",earth,"2014-05-05 12:22:49.000000"
1113463906234654721,"2019-04-03 15:30:57.000000","@anjaneeeeh @gojekindonesia Iyaa bisaaa!!! Hahahaha makasih de 😂😂😂","better place.","2009-09-25 08:14:18.000000"
1113464134207647745,"2019-04-03 15:31:51.000000","@nonnisse @gojekindonesia Udah coba complain via aplikasi lom?",021,"2009-10-07 04:35:30.000000"
1113464346598825984,"2019-04-03 15:32:42.000000","@gojekindonesia Buset baru dibales dong",Winterfell,"2010-04-07 06:48:09.000000"
1113464661557489664,"2019-04-03 15:33:57.000000","Iya iya aku tau aku jomblo. Tapi ya ga digombalin sepanjang jalan dan minta minta wa terus dong Bang Driper Grab....... @GrabID",Indonesia,"2009-11-27 13:01:51.000000"
1113465043327148032,"2019-04-03 15:35:28.000000","@gojekindonesia klo pin gopay ke blokir,minta di benerin ,gmn caranya?","Juventus Stadium","2011-09-03 07:17:00.000000"
1113465294016499712,"2019-04-03 15:36:27.000000","Di kecewain sama driver @gojekindonesia motor. Sampe ilang selera makan ku sudah.....",Djogjakarta,"2010-09-20 01:32:21.000000"
1113465304103809025,"2019-04-03 15:36:30.000000","@gojekindonesia saya dulu pernah register gojek dengan email dan nomer yg lama. Nah nomernya mati, saya tidak bisa… https://t.co/IXnnsE8BIz","satriatama'14 | bhissak'17","2011-10-04 11:35:22.000000"
1113465491413012480,"2019-04-03 15:37:14.000000","DEAR @kresnasikecil @AP_Airports @GrabID LEBIH BAIK DITAMBAHKAN MESIN PENJUAL AIR MINUM ATAU KRAN AIR MINUM DONG DI… https://t.co/lkw4WCE9vM",,"2009-06-21 15:00:13.000000"
1113465817130184704,"2019-04-03 15:38:32.000000","min tolong dong saya udah dm keluhan ttg yg waktu itu ga bisa terus top up ovo lewat m banking beberapa hari lalu t… https://t.co/okrzZFKK1y",,"2012-01-13 10:44:58.000000"
1113466028720132098,"2019-04-03 15:39:23.000000","[RESULT] Game over Adhika Ariyadi/Naufal Hafizhariyanto (UB) menang atas Gilang Yudha/Muhammad Agung (UNPAD)
Skor:… https://t.co/VIQC62Jv1F",Indonesia,"2012-05-04 10:29:57.000000"
1113466114078433280,"2019-04-03 15:39:43.000000","@gojekindonesia Silahkan cek DM.",,"2019-03-03 09:53:00.000000"
1113466172094029825,"2019-04-03 15:39:57.000000","@galihmarenda @Cregitaa Haluu @gojekindonesia","Surakarta, Jawa Tengah","2011-09-18 05:01:18.000000"
1113466293175209984,"2019-04-03 15:40:26.000000","@GrabID tolong cek dm saya","Bogor, Indonesia","2012-04-20 01:01:20.000000"
1113466546473435136,"2019-04-03 15:41:26.000000","@mey_hutapea @GrabID #zigizagasquad #sobattajirqu","Jakarta, Indonesia","2009-06-02 16:05:46.000000"
1113466615658557441,"2019-04-03 15:41:43.000000","@babbewicaksono @Cregitaa @gojekindonesia Teruntuk @gojekindonesia tolong sediakan go-clean untuk hati kami semua,… https://t.co/cglHcPnplp","Surakarta, Jawa Tengah","2011-03-27 13:24:10.000000"
1113467146053378049,"2019-04-03 15:43:49.000000","@Adibullet @kresnasikecil @AP_Airports @GrabID Ke AP2 pa ajiii",indonesia,"2009-09-23 02:15:23.000000"
1113467878060085249,"2019-04-03 15:46:44.000000","@GrabID baca nihh","ca / pa","2017-01-02 21:58:44.000000"
1113468579565854720,"2019-04-03 15:49:31.000000","@azharfattah_ @GrabID Yahh begitulah mas wkwkwk","Jakarta Timur, DKI Jakarta","2017-07-28 06:00:24.000000"
1113468640039297024,"2019-04-03 15:49:45.000000","@aqied @GrabID Bye bye kode GRABMENEHOVO
😆😆😆","Yogyakarta, Indonesia","2009-10-22 04:48:09.000000"
1113468808931422208,"2019-04-03 15:50:25.000000","seneng ketika tau rating profile di @gojekindonesia dr driver, (mungkin) salah satu teknis penilaian kepribadian. karena, menjadi apa adanya",+62,"2009-12-13 04:49:27.000000"
1113469004914388993,"2019-04-03 15:51:12.000000","@lalitappp @gojekindonesia @jannavnty Tadi udah dibales tweet disuruh DM screenshot transaksi dll, tp habis itu belum ada lanjutannya mba..",,"2009-11-05 14:30:17.000000"
1113469123646750720,"2019-04-03 15:51:40.000000","Hello @GrabID kenapa kok promoan gabisa dipake terus ya padahal belom pernah dipake sama sekali? Buat apa ada promo… https://t.co/dvTY4fSjIT",Neverland,"2010-03-10 06:54:44.000000"
1113469243872272384,"2019-04-03 15:52:09.000000","katanya spesial cuma buat aku tapi nyatanya kirim ke semua tinggal ganti nama doang, kayak doi @GrabID https://t.co/Lrt8JICZcA",,"2014-07-19 07:14:50.000000"
1113469439838543873,"2019-04-03 15:52:56.000000","bikin laporan ke cs @gojekindonesia trus dpt email dr cs nya gopay (2 kali oleh 2 personil cs yg berbeda) yg seolah… https://t.co/NhHKRzX3BD","Jakarta, Indonesia","2009-06-14 17:33:30.000000"
1113470160076042240,"2019-04-03 15:55:48.000000","@rrreeetttiii @anggi_aka_anjis @gojekindonesia Atau bisa juga pesanan Ibu @anggi_aka_anjis tidak memenuhi kriteria… https://t.co/iwKSDZ7a3S","ÜT: -6.1902,106.76174","2009-04-24 03:32:17.000000"
1113470733697441792,"2019-04-03 15:58:04.000000","@gojekindonesia min gimana ini blm masuk masuk paket data saya yg beli di app gojek😢😢😢 butuh bgt buat besok ke kampus","DKI Jakarta, Indonesia","2018-09-29 16:54:11.000000"
1113470983749271552,"2019-04-03 15:59:04.000000","@gojekindonesia @gojekindonesia ,
Akun driver saya dalam waktu 3 bulan terakhir masih bisa login/logout.
Tapi tidak… https://t.co/g3LyaqsQuk",,"2019-01-16 01:36:28.000000"
1113471105950314496,"2019-04-03 15:59:33.000000","Dear  @GrabID  &amp; @ovo_id , td sore sya order grab bike. Tpi dgn alasan map nya ngaco dan posisi driver jauh akhirny… https://t.co/SnoZzCNzDb",Indonesia,"2011-09-21 12:00:06.000000"
1113471290591961094,"2019-04-03 16:00:17.000000","@galihmarenda @babbewicaksono @gojekindonesia Kata gojek : silahkan install aplikasi tinder kak",,"2012-06-27 10:59:14.000000"
1113471458942935042,"2019-04-03 16:00:57.000000","@GrabID  @ovo_id tlong penjelasannya. Thx.",Indonesia,"2011-09-21 12:00:06.000000"
1113471509161402368,"2019-04-03 16:01:09.000000","There's time that makes me suddenly miss everything about jkt, every single road I have been through by using… https://t.co/LRGWyj9qb0",,"2018-06-13 17:04:06.000000"
1113471887705657344,"2019-04-03 16:02:39.000000","@gojekindonesia Mas/Mba cs gojek, setiap saya login kenapa server busy terus ya ? clear data &amp; cache udah . reinstall udah . kecewa nihhh",Bekasi,"2011-06-26 14:11:03.000000"
1113471986447970304,"2019-04-03 16:03:03.000000","@SugihFirmansyah @gojekindonesia mending pake @GrabID aja 😋","Bandung | Jakarta ","2010-02-02 07:04:55.000000"
1113472266187104256,"2019-04-03 16:04:10.000000","@gojekindonesia hi, kok pemberian tips nya ga bisa custom ya nomilnya?",Purwokerto,"2011-01-08 08:46:54.000000"
1113472481006723072,"2019-04-03 16:05:01.000000","@gojekindonesia @gojekindonesia ,
Saya sudah mengikuti aturan gojek tanpa fage GPS dan sejenisnya, mohon pencerahan… https://t.co/LRq0zHrQ01",,"2019-01-16 01:36:28.000000"
1113473498570088449,"2019-04-03 16:09:04.000000","mungkin driver ini perlu dikasih reward oleh @GrabID krn selama perjalanan beliau sll jelasin keuntungan pake grab,… https://t.co/ztnA6vfTr0",indonesia,"2011-06-15 13:49:06.000000"
1113473627209355264,"2019-04-03 16:09:34.000000","@gojekindonesia barusan saya pesen gofood, makanannya kosong akhirnya saya cancel. Driver malah berkata kasar dan b… https://t.co/6qS8g1SWDy","Vengeance University","2012-06-13 04:19:52.000000"
1113473900472455168,"2019-04-03 16:10:39.000000","@GrabID Hello, could you check your DM? i sent some of question to you","Medan Deli, Indonesia","2011-01-03 06:23:18.000000"
1113474479726817280,"2019-04-03 16:12:57.000000","@GrabID halo min saya ada reward cuman ini kok pas dicek kosong ya? https://t.co/tDuokaF6OS",+62,"2013-11-30 22:36:26.000000"
1113474677005881345,"2019-04-03 16:13:45.000000","@gojekindonesia barusan saya pesen gofood, makanannya kosong akhirnya saya cancel. Driver malah berkata kasar dan b… https://t.co/ObA5T6EvOu","Vengeance University","2012-06-13 04:19:52.000000"
1113475146520551424,"2019-04-03 16:15:36.000000","@gojekindonesia saldo gopay saya dikembalikan atau tidak ya pesanan gofood sy tidak sesuai lengkap","ÜT: -6.176881,106.863001","2010-02-18 23:00:48.000000"
1113475199742095360,"2019-04-03 16:15:49.000000","@tubirfess @gojekindonesia tolong kerjanya dimaksimalkan.","Yogyakarta, Indonesia","2014-02-12 13:34:36.000000"
1113475222529642496,"2019-04-03 16:15:55.000000","@GrabID Sudah aku dm ya, min",,"2009-05-27 09:54:31.000000"
1113475380042559489,"2019-04-03 16:16:32.000000","YAUDAH krn kalian keknya pengen bgt aku spill orangnya, NIH aku kasih teaser dikit heheh

@GrabID coba tebak ini dr… https://t.co/rqozytoxil",,"2018-05-21 07:08:19.000000"
1113475811409948672,"2019-04-03 16:18:15.000000","@rizkanurulaaa @GrabID Uwew anak metroboledan yg jd metropolitan:v","Purbalingga, Indonesia","2018-06-14 01:21:42.000000"
1113475814404681729,"2019-04-03 16:18:16.000000","@gojekindonesia cek dm saya, saya sudah kirim permasalahannya",,"2011-01-23 09:14:34.000000"
1113475830057816064,"2019-04-03 16:18:19.000000","@gojekindonesia Oittttt!!!!","Depok - Tanah Baru","2009-07-13 07:33:23.000000"
1113476071230464002,"2019-04-03 16:19:17.000000","Tadi order grab bike pake ovo 7 ribu, kenapa pas nyampe liat di riwayat pesanan bisa naik jadi 9 ribu ya? @GrabID",,"2015-04-06 09:05:34.000000"
1113476294878973952,"2019-04-03 16:20:10.000000","@riedaputri @gojekindonesia Lebay. Lemah",,"2009-09-28 01:44:49.000000"
1113476463544508416,"2019-04-03 16:20:50.000000","@GrabID huhuhu tolong dong admin, barangnya blm sampe tapi udh di selesein, mana barangnya ga bisa di bawa inep dri… https://t.co/YXSO4v8oih",,"2009-05-20 14:17:10.000000"
1113476513951678464,"2019-04-03 16:21:02.000000","Hey @GrabID 
Tolong sering kasih notifikasi di akun konsumen: ""siapkan uang pas untuk pembayaran tunai.""

Konsumen… https://t.co/Z5tIXz5Oky",Bandung,"2018-03-10 14:16:14.000000"
1113477047316123648,"2019-04-03 16:23:10.000000","@GrabID di DM ya",,"2014-11-26 02:00:47.000000"
1113477071815057408,"2019-04-03 16:23:15.000000","@GrabID min mau tanya, misal saya ganti nomer apa bisa ganti nomer di akun grab saya? atau saya harus bikin akun baru? tks",,"2019-01-02 19:17:02.000000"
1113477210600497152,"2019-04-03 16:23:49.000000","@fakhrimabok @kresnasikecil @AP_Airports @GrabID OKE DI RETWEET LAGI...",,"2009-06-21 15:00:13.000000"
1113477248651128832,"2019-04-03 16:23:58.000000","@gojekindonesia min mau tanya, misal saya ganti nomer apa bisa ganti nomer di akun gojek saya? atau saya harus bikin akun baru? tks",,"2019-01-02 19:17:02.000000"
1113477356893560832,"2019-04-03 16:24:23.000000","Jangan lupa besok tetap saksikan pertandingan LIMA Badminton Nationals Season 7 di Grha Instiper Yogyakarta atau st… https://t.co/lHrlMm9DAz",Indonesia,"2012-05-04 10:29:57.000000"
1113477445095645184,"2019-04-03 16:24:44.000000","CC @AngkasaPura_2",,"2009-06-21 15:00:13.000000"
1113477976979431425,"2019-04-03 16:26:51.000000","@gojekindonesia halo min, ini tweet ke 4. paket data yang saya beli lewat aplikasi tadi pagi blm juga masuk (69k go… https://t.co/2EipCpKf5F","DKI Jakarta, Indonesia","2018-09-29 16:54:11.000000"
1113478910820343809,"2019-04-03 16:30:34.000000","@GrabID oke makasih banyak ya min",,"2012-01-13 10:44:58.000000"
1113479598593859584,"2019-04-03 16:33:18.000000","@gojekindonesia Maaf mas tapi saya memang tidak ada transaksi  ke Gojek belakangan. Jd ada komplain ratingnya itu k… https://t.co/j0M7oWC8IG","Big World","2010-09-25 04:56:20.000000"
1113480973079826434,"2019-04-03 16:38:46.000000","@gojekindonesia Halo, barusan ngisi gopay lewat Mbca kok ngga masuk ya? saldonya udh kepotong padahal","Jakarta Capital Region, Indone","2019-03-14 00:11:14.000000"
1113481282317484032,"2019-04-03 16:39:59.000000","@GrabID kok aku gak bisa top-up saldo ovo grab via mbanking, atm dan drivernya?",Jakarta,"2013-07-08 07:13:08.000000"
1113482241231839232,"2019-04-03 16:43:48.000000","Dear @gojekindonesia 
Selamat malam, kalau saya boleh tau. Adakah standar motor utk driver goride?
Karena tadi pagi… https://t.co/QcQKU8OB71","Bekasi Selatan, Indonesia","2011-05-11 07:20:41.000000"
1113483444946763776,"2019-04-03 16:48:35.000000","@gojekindonesia min liat dm yaa","Jkt, INA","2009-05-31 12:02:50.000000"
1113483480493465600,"2019-04-03 16:48:43.000000","@gojekindonesia min tolong cek dm ya min 🙏🙏 urgent",,"2009-05-25 13:56:55.000000"
1113483513682993152,"2019-04-03 16:48:51.000000","@GrabID setelah di perbarui kok gabisa top up ya min? https://t.co/U3mqeFrlu5","Jakarta | Indonesia","2012-03-24 06:49:40.000000"
1113483569509179392,"2019-04-03 16:49:05.000000","@tampanselaluu @monsterizka @bupind_ @GrabID Grab udah kok.. Langsung di totalin plus pajak lagi. Aku aja yang beli… https://t.co/6UlLsbAEP7","Jakarta Capital Region","2017-03-02 08:02:30.000000"
1113483579978182656,"2019-04-03 16:49:07.000000","@GrabID min kok aku belom dapet jodoh juga ya min? gimana dong??",,"2019-02-11 15:11:41.000000"
1113484073589039104,"2019-04-03 16:51:05.000000","@gojekindonesia Oke siap min","Bengkulu - Bandung - Jakarta","2009-10-12 09:38:37.000000"
1113484126001041409,"2019-04-03 16:51:17.000000","yaaaah malem2 gini emg enak nya makan besar trs bobo, gmn ga gembrot cobaaaaa?
btw alhamdulillah makasih @GrabID… https://t.co/HpQFUCSHPs","Garut,Indonesia","2011-02-15 07:21:27.000000"
1113484612750020608,"2019-04-03 16:53:13.000000","@GrabID malam kak, maaf ini cara solvenya gimana ya kak? Makasih kak https://t.co/vsIL6zdyzO",,"2018-12-31 17:13:35.000000"
1113484617565134848,"2019-04-03 16:53:15.000000","@gojekindonesia min kalo saya salah nomor untuk kirim pulsa, tp nomer yg saya kirim itu nomer tidak terdaftar. Uangnya bakal dibalikin gak?",,"2009-05-25 13:56:55.000000"
1113484628604575748,"2019-04-03 16:53:17.000000","@adindayp @alifiaafrds @gojekindonesia @gojekindonesia @gojekindonesia","Tangerang, Indonesia","2012-03-23 05:28:36.000000"
1113484683759603712,"2019-04-03 16:53:30.000000","@piaaopi @gojekindonesia @HokBen Laaahhh diitwiiiittt",,"2019-02-04 09:25:22.000000"
1113484729007742977,"2019-04-03 16:53:41.000000","@gojekindonesia Masalahnya sudah resolve, thanks admin","Bengkulu - Bandung - Jakarta","2009-10-12 09:38:37.000000"
1113484902505123840,"2019-04-03 16:54:22.000000","@yogigumgum @gojekindonesia Mkasi lho gum",,"2009-08-15 14:21:38.000000"
1113485401170137088,"2019-04-03 16:56:21.000000","@gojekindonesia minnn liat dm","Jkt, INA","2009-05-31 12:02:50.000000"
1113485448922357760,"2019-04-03 16:56:33.000000","Cek dm ya mimin yang baik hati @gojekindonesia","Jkt, INA","2009-05-31 12:02:50.000000"
1113485624516829187,"2019-04-03 16:57:15.000000","@gojekindonesia need help barusan pesan gofood, pesanan belum sampai tapi ordernya sudah diselesaikan sm driver. Mohon cek dm min🙂","Jkt, INA","2009-05-31 12:02:50.000000"
1113485694389747713,"2019-04-03 16:57:31.000000","Min
Aplikasi saya kok tidak bisa buat order?
@gojekindonesia","Clorot Purworejo","2012-08-07 08:21:58.000000"
1113486645624315904,"2019-04-03 17:01:18.000000","Dear @GrabID td sore saya naik grab dan melakukan top up via driver, tapi ternyata sampai skrng top up nya blm masu… https://t.co/AOsGXbAJsp","Yogyakarta, Indonesia","2011-02-13 02:34:12.000000"
1113486872406241281,"2019-04-03 17:02:12.000000","@AntonPulltazy @gojekindonesia Arak go gojekke lotsean yo mz? 👀","Purworejo, Indonesia","2014-03-16 10:45:13.000000"
1113486936281194499,"2019-04-03 17:02:27.000000","Gagal tupo gara2 dikerjain akun ini.
Awalnya Ok janjian dan lgsg saya kejar ke TKP.
Terus kemudian di telp ngeles m… https://t.co/6DhRK51Hvo","Bekasi, Jawa Barat","2019-02-27 13:19:44.000000"
1113487445079744512,"2019-04-03 17:04:29.000000","@gojekindonesia hmmm harus apa aku? https://t.co/EWltQBfMCP",Indonesia,"2009-07-02 03:58:03.000000"
1113487618967166976,"2019-04-03 17:05:10.000000","@ihdinachn @GrabID Bapaknya panique.",Neverland,"2017-11-30 03:46:56.000000"
1113487676424937473,"2019-04-03 17:05:24.000000","@gojekindonesia DM sent, please help, thank you.",,"2009-05-10 05:13:04.000000"
1113488286746443778,"2019-04-03 17:07:49.000000","@GrabID Sip. Jgn sampe dianggurin lagi ya...","Jakarta Selatan, DKI Jakarta","2010-06-13 06:22:09.000000"
1113488562454822913,"2019-04-03 17:08:55.000000","Kenapa begini terus ya saat mau transaksi go pulsa. @gojekindonesia https://t.co/Fx9nrG4V7q",Indonesia,"2012-07-12 00:09:12.000000"
1113488897294475264,"2019-04-03 17:10:15.000000","selamat malam @gojekindonesia td sktr 15/10mnt yg lalu itu sy order gofood sejumlah 50rb melalui sistem gopay. Namu… https://t.co/oYsApkL3wJ",,"2014-09-02 14:07:10.000000"
1113498704311242752,"2019-04-03 17:49:13.000000","@dearfetty @gojekindonesia Jangan diprivate dong ceunah","Tangerang, ID.","2009-07-02 07:18:53.000000"
1113498705246584832,"2019-04-03 17:49:13.000000","Min, mau tanya dong untuk driver yg pake autobid dan gak bertanggung jawab sanksinya apa ya? @gojekindonesia",Jakarta,"2010-08-02 12:46:33.000000"
1113498743423197184,"2019-04-03 17:49:22.000000","Kenapa ya aplikasi grab saya sesudah masuk ke tahap verifikasi malah balik lagi ke home grab nya? Dan selalu error… https://t.co/mT1tiU7Fey","Serpong, Indonesia","2010-06-26 08:57:09.000000"
1113499531696414720,"2019-04-03 17:52:30.000000","@AkhmadFaozin96 @pipitsetiaa @DjarumBadminton @INABadminton @BadmintonTalk @INA_Bminton @bulutangkisRI… https://t.co/ulBinb3UOV","purwokerto || jawa tengah","2016-02-16 07:07:55.000000"
1113500979549233152,"2019-04-03 17:58:16.000000","@khashia_yudi @bprayoga2009 @pras18ter @LMingce @kemalarsjad @gojekindonesia @bukalapak @tokopedia @jokowi Goblok namanya dul.",Indonesia,"2018-06-06 14:07:05.000000"
